<svg xmlns="http://www.w3.org/2000/svg" xmlns:xlink="http://www.w3.org/1999/xlink" version="1.2" width="153.01mm" height="41.14mm" viewBox="0 0 51.2199 13.7722">
<style type="text/css">
<![CDATA[
tspan { white-space: pre; }
]]>
</style>
<!-- Page: 1/1 -->
<g transform="translate(0.3347, 1.9038)">
<line stroke-linejoin="round" stroke-linecap="round" stroke-width="0.0729" stroke="currentColor" x1="0.0365" y1="0" x2="50.5869" y2="0"/>
</g>
<g transform="translate(0.3347, 3.4038)">
<line stroke-linejoin="round" stroke-linecap="round" stroke-width="0.0729" stroke="currentColor" x1="0.0365" y1="0" x2="50.5869" y2="0"/>
</g>
<g transform="translate(0.3347, 6.4038)">
<line stroke-linejoin="round" stroke-linecap="round" stroke-width="0.0729" stroke="currentColor" x1="0.0365" y1="0" x2="50.5869" y2="0"/>
</g>
<g transform="translate(0.3347, 7.9038)">
<line stroke-linejoin="round" stroke-linecap="round" stroke-width="0.0729" stroke="currentColor" x1="0.0365" y1="0" x2="50.5869" y2="0"/>
</g>
<g transform="translate(0.3347, 4.9038)">
<rect x="44.3896" y="-0.0740" width="2.5313" height="0.1479" ry="0.0740" fill="currentColor"/>
</g>
<g transform="translate(0.3347, 4.9038)">
<rect x="38.3877" y="-0.0740" width="2.5313" height="0.1479" ry="0.0740" fill="currentColor"/>
</g>
<g transform="translate(0.3347, 4.9038)">
<rect x="38.3765" y="-0.0740" width="2.5786" height="0.1479" ry="0.0740" fill="currentColor"/>
</g>
<g transform="translate(0.3347, 4.9038)">
<rect x="32.4106" y="-0.0740" width="2.5313" height="0.1479" ry="0.0740" fill="currentColor"/>
</g>
<g transform="translate(0.3347, 4.9038)">
<rect x="26.3726" y="-0.0740" width="2.5786" height="0.1479" ry="0.0740" fill="currentColor"/>
</g>
<g transform="translate(0.3347, 9.4038)">
<rect x="8.3779" y="-0.0740" width="2.5313" height="0.1479" ry="0.0740" fill="currentColor"/>
</g>
<g transform="translate(0.3347, 9.4038)">
<rect x="2.3760" y="-0.0740" width="2.5313" height="0.1479" ry="0.0740" fill="currentColor"/>
</g>
<g transform="scale(1.0000, 1.0000)">
<g transform="translate(39.3220, 5.2788)">
<path stroke-width="0.0001" stroke-linejoin="round" stroke-linecap="round" stroke="currentColor" fill="currentColor" d="M1.0265 -0.4999C1.2152 -0.4618 1.3372 -0.3515 1.3549 -0.2025C1.3692 -0.0828 1.3124 0.0767 1.2094 0.2063C1.0774 0.3724 0.8892 0.4721 0.6459 0.5049C0.5851 0.5131 0.5489 0.5134 0.4433 0.5068C0.3289 0.4996 0.3088 0.4966 0.2606 0.4798C0.1181 0.4300 0.0248 0.3354 0.0042 0.2196C-0.0154 0.1092 0.0352 -0.0503 0.1321 -0.1828C0.2682 -0.3692 0.4766 -0.4818 0.7307 -0.5063C0.8236 -0.5152 0.9655 -0.5122 1.0265 -0.4999zM0.8920 -0.3272C0.8019 -0.3059 0.6744 -0.2509 0.5172 -0.1656C0.1997 0.0069 0.1097 0.0977 0.1513 0.2039C0.1688 0.2487 0.1917 0.2776 0.2265 0.2986C0.3097 0.3488 0.4220 0.3375 0.6348 0.2572C0.9775 0.1280 1.2160 -0.0339 1.2240 -0.1427C1.2287 -0.2070 1.1849 -0.2813 1.1220 -0.3156C1.0837 -0.3365 1.0773 -0.3379 1.0151 -0.3393C0.9699 -0.3403 0.9308 -0.3364 0.8920 -0.3272z"/>
</g>
</g>
<g transform="translate(22.6258, 4.9038)">
<rect x="-0.0474" y="-2.3750" width="0.0948" height="4.8133" ry="0.0235" fill="currentColor"/>
</g>
<g transform="translate(34.6297, 4.9038)">
<rect x="-0.0474" y="-3.5000" width="0.0948" height="4.4383" ry="0.0235" fill="currentColor"/>
</g>
<g color="rgb(25.4902%, 41.1765%, 88.2353%)">
<g transform="translate(32.4521, 12.4038)">
<text font-family="sans-serif" font-size="1.1000" text-anchor="start" fill="currentColor">
<tspan>Minor</tspan>
</text>
</g>
<g transform="translate(32.5927, 13.7402)">
<text font-family="sans-serif" font-size="1.1000" text-anchor="start" fill="currentColor">
<tspan>Third</tspan>
</text>
</g>
</g>
<g transform="scale(1.0000, 1.0000)">
<g transform="translate(33.3449, 4.9038)">
<path stroke-width="0.0001" stroke-linejoin="round" stroke-linecap="round" stroke="currentColor" fill="currentColor" d="M1.0162 -0.5005C1.1901 -0.4580 1.3000 -0.3601 1.3267 -0.2237C1.3473 -0.1188 1.3091 0.0324 1.2347 0.1410C1.1037 0.3322 0.8787 0.4644 0.6176 0.5036C0.5244 0.5176 0.3659 0.5121 0.2884 0.4921C-0.0297 0.4098 -0.0964 0.0918 0.1475 -0.1799C0.2984 -0.3479 0.5439 -0.4756 0.7758 -0.5066C0.8400 -0.5151 0.9696 -0.5119 1.0162 -0.5005z"/>
</g>
</g>
<g transform="scale(1.0000, 1.0000)">
<g transform="translate(33.3200, 6.0288)">
<path stroke-width="0.0001" stroke-linejoin="round" stroke-linecap="round" stroke="currentColor" fill="currentColor" d="M1.0265 -0.4999C1.2152 -0.4618 1.3372 -0.3515 1.3549 -0.2025C1.3692 -0.0828 1.3124 0.0767 1.2094 0.2063C1.0774 0.3724 0.8892 0.4721 0.6459 0.5049C0.5851 0.5131 0.5489 0.5134 0.4433 0.5068C0.3289 0.4996 0.3088 0.4966 0.2606 0.4798C0.1181 0.4300 0.0248 0.3354 0.0042 0.2196C-0.0154 0.1092 0.0352 -0.0503 0.1321 -0.1828C0.2682 -0.3692 0.4766 -0.4818 0.7307 -0.5063C0.8236 -0.5152 0.9655 -0.5122 1.0265 -0.4999zM0.8920 -0.3272C0.8019 -0.3059 0.6744 -0.2509 0.5172 -0.1656C0.1997 0.0069 0.1097 0.0977 0.1513 0.2039C0.1688 0.2487 0.1917 0.2776 0.2265 0.2986C0.3097 0.3488 0.4220 0.3375 0.6348 0.2572C0.9775 0.1280 1.2160 -0.0339 1.2240 -0.1427C1.2287 -0.2070 1.1849 -0.2813 1.1220 -0.3156C1.0837 -0.3365 1.0773 -0.3379 1.0151 -0.3393C0.9699 -0.3403 0.9308 -0.3364 0.8920 -0.3272z"/>
</g>
</g>
<g transform="translate(28.6278, 4.9038)">
<rect x="-0.0474" y="-3.1250" width="0.0948" height="4.8133" ry="0.0235" fill="currentColor"/>
</g>
<g color="rgb(18.0392%, 54.5098%, 34.1176%)">
<g transform="translate(26.4602, 12.4038)">
<text font-family="sans-serif" font-size="1.1000" text-anchor="start" fill="currentColor">
<tspan>Major</tspan>
</text>
</g>
<g transform="translate(26.5907, 13.7402)">
<text font-family="sans-serif" font-size="1.1000" text-anchor="start" fill="currentColor">
<tspan>Third</tspan>
</text>
</g>
</g>
<g transform="scale(1.0000, 1.0000)">
<g transform="translate(27.3180, 5.2788)">
<path stroke-width="0.0001" stroke-linejoin="round" stroke-linecap="round" stroke="currentColor" fill="currentColor" d="M1.0265 -0.4999C1.2152 -0.4618 1.3372 -0.3515 1.3549 -0.2025C1.3692 -0.0828 1.3124 0.0767 1.2094 0.2063C1.0774 0.3724 0.8892 0.4721 0.6459 0.5049C0.5851 0.5131 0.5489 0.5134 0.4433 0.5068C0.3289 0.4996 0.3088 0.4966 0.2606 0.4798C0.1181 0.4300 0.0248 0.3354 0.0042 0.2196C-0.0154 0.1092 0.0352 -0.0503 0.1321 -0.1828C0.2682 -0.3692 0.4766 -0.4818 0.7307 -0.5063C0.8236 -0.5152 0.9655 -0.5122 1.0265 -0.4999zM0.8920 -0.3272C0.8019 -0.3059 0.6744 -0.2509 0.5172 -0.1656C0.1997 0.0069 0.1097 0.0977 0.1513 0.2039C0.1688 0.2487 0.1917 0.2776 0.2265 0.2986C0.3097 0.3488 0.4220 0.3375 0.6348 0.2572C0.9775 0.1280 1.2160 -0.0339 1.2240 -0.1427C1.2287 -0.2070 1.1849 -0.2813 1.1220 -0.3156C1.0837 -0.3365 1.0773 -0.3379 1.0151 -0.3393C0.9699 -0.3403 0.9308 -0.3364 0.8920 -0.3272z"/>
</g>
</g>
<g transform="scale(1.0000, 1.0000)">
<g transform="translate(27.3180, 6.7788)">
<path stroke-width="0.0001" stroke-linejoin="round" stroke-linecap="round" stroke="currentColor" fill="currentColor" d="M1.0265 -0.4999C1.2152 -0.4618 1.3372 -0.3515 1.3549 -0.2025C1.3692 -0.0828 1.3124 0.0767 1.2094 0.2063C1.0774 0.3724 0.8892 0.4721 0.6459 0.5049C0.5851 0.5131 0.5489 0.5134 0.4433 0.5068C0.3289 0.4996 0.3088 0.4966 0.2606 0.4798C0.1181 0.4300 0.0248 0.3354 0.0042 0.2196C-0.0154 0.1092 0.0352 -0.0503 0.1321 -0.1828C0.2682 -0.3692 0.4766 -0.4818 0.7307 -0.5063C0.8236 -0.5152 0.9655 -0.5122 1.0265 -0.4999zM0.8920 -0.3272C0.8019 -0.3059 0.6744 -0.2509 0.5172 -0.1656C0.1997 0.0069 0.1097 0.0977 0.1513 0.2039C0.1688 0.2487 0.1917 0.2776 0.2265 0.2986C0.3097 0.3488 0.4220 0.3375 0.6348 0.2572C0.9775 0.1280 1.2160 -0.0339 1.2240 -0.1427C1.2287 -0.2070 1.1849 -0.2813 1.1220 -0.3156C1.0837 -0.3365 1.0773 -0.3379 1.0151 -0.3393C0.9699 -0.3403 0.9308 -0.3364 0.8920 -0.3272z"/>
</g>
</g>
<g transform="translate(45.3713, 4.9038)">
<rect x="-0.0474" y="-1.3133" width="0.0948" height="4.8133" ry="0.0235" fill="currentColor"/>
</g>
<g transform="scale(1.0000, 1.0000)">
<g transform="translate(39.3220, 4.1538)">
<path stroke-width="0.0001" stroke-linejoin="round" stroke-linecap="round" stroke="currentColor" fill="currentColor" d="M1.0162 -0.5005C1.1901 -0.4580 1.3000 -0.3601 1.3267 -0.2237C1.3473 -0.1188 1.3091 0.0324 1.2347 0.1410C1.1037 0.3322 0.8787 0.4644 0.6176 0.5036C0.5244 0.5176 0.3659 0.5121 0.2884 0.4921C-0.0297 0.4098 -0.0964 0.0918 0.1475 -0.1799C0.2984 -0.3479 0.5439 -0.4756 0.7758 -0.5066C0.8400 -0.5151 0.9696 -0.5119 1.0162 -0.5005z"/>
</g>
</g>
<g color="rgb(18.0392%, 54.5098%, 34.1176%)">
<g transform="translate(44.4536, 12.4038)">
<text font-family="sans-serif" font-size="1.1000" text-anchor="start" fill="currentColor">
<tspan>Major</tspan>
</text>
</g>
<g transform="translate(44.5842, 13.7402)">
<text font-family="sans-serif" font-size="1.1000" text-anchor="start" fill="currentColor">
<tspan>Third</tspan>
</text>
</g>
</g>
<g transform="scale(1.0000, 1.0000)">
<g transform="translate(45.3239, 3.4038)">
<path stroke-width="0.0001" stroke-linejoin="round" stroke-linecap="round" stroke="currentColor" fill="currentColor" d="M1.0162 -0.5005C1.1901 -0.4580 1.3000 -0.3601 1.3267 -0.2237C1.3473 -0.1188 1.3091 0.0324 1.2347 0.1410C1.1037 0.3322 0.8787 0.4644 0.6176 0.5036C0.5244 0.5176 0.3659 0.5121 0.2884 0.4921C-0.0297 0.4098 -0.0964 0.0918 0.1475 -0.1799C0.2984 -0.3479 0.5439 -0.4756 0.7758 -0.5066C0.8400 -0.5151 0.9696 -0.5119 1.0162 -0.5005z"/>
</g>
</g>
<g transform="scale(1.0000, 1.0000)">
<g transform="translate(45.3239, 4.9038)">
<path stroke-width="0.0001" stroke-linejoin="round" stroke-linecap="round" stroke="currentColor" fill="currentColor" d="M1.0162 -0.5005C1.1901 -0.4580 1.3000 -0.3601 1.3267 -0.2237C1.3473 -0.1188 1.3091 0.0324 1.2347 0.1410C1.1037 0.3322 0.8787 0.4644 0.6176 0.5036C0.5244 0.5176 0.3659 0.5121 0.2884 0.4921C-0.0297 0.4098 -0.0964 0.0918 0.1475 -0.1799C0.2984 -0.3479 0.5439 -0.4756 0.7758 -0.5066C0.8400 -0.5151 0.9696 -0.5119 1.0162 -0.5005z"/>
</g>
</g>
<g transform="translate(39.3694, 4.9038)">
<rect x="-0.0474" y="-0.5633" width="0.0948" height="4.3966" ry="0.0235" fill="currentColor"/>
</g>
<g color="rgb(25.4902%, 41.1765%, 88.2353%)">
<g transform="translate(38.4416, 12.4038)">
<text font-family="sans-serif" font-size="1.1000" text-anchor="start" fill="currentColor">
<tspan>Minor</tspan>
</text>
</g>
<g transform="translate(38.5822, 13.7402)">
<text font-family="sans-serif" font-size="1.1000" text-anchor="start" fill="currentColor">
<tspan>Third</tspan>
</text>
</g>
</g>
<g color="rgb(18.0392%, 54.5098%, 34.1176%)">
<g transform="translate(2.4399, 12.4038)">
<text font-family="sans-serif" font-size="1.1000" text-anchor="start" fill="currentColor">
<tspan>Major</tspan>
</text>
</g>
<g transform="translate(2.5705, 13.7402)">
<text font-family="sans-serif" font-size="1.1000" text-anchor="start" fill="currentColor">
<tspan>Third</tspan>
</text>
</g>
</g>
<g transform="translate(10.5971, 4.9038)">
<rect x="-0.0474" y="-0.8750" width="0.0948" height="4.4383" ry="0.0235" fill="currentColor"/>
</g>
<g color="rgb(25.4902%, 41.1765%, 88.2353%)">
<g transform="translate(8.4318, 12.4038)">
<text font-family="sans-serif" font-size="1.1000" text-anchor="start" fill="currentColor">
<tspan>Minor</tspan>
</text>
</g>
<g transform="translate(8.5724, 13.7402)">
<text font-family="sans-serif" font-size="1.1000" text-anchor="start" fill="currentColor">
<tspan>Third</tspan>
</text>
</g>
</g>
<g transform="scale(1.0000, 1.0000)">
<g transform="translate(9.2873, 7.5288)">
<path stroke-width="0.0001" stroke-linejoin="round" stroke-linecap="round" stroke="currentColor" fill="currentColor" d="M1.0265 -0.4999C1.2152 -0.4618 1.3372 -0.3515 1.3549 -0.2025C1.3692 -0.0828 1.3124 0.0767 1.2094 0.2063C1.0774 0.3724 0.8892 0.4721 0.6459 0.5049C0.5851 0.5131 0.5489 0.5134 0.4433 0.5068C0.3289 0.4996 0.3088 0.4966 0.2606 0.4798C0.1181 0.4300 0.0248 0.3354 0.0042 0.2196C-0.0154 0.1092 0.0352 -0.0503 0.1321 -0.1828C0.2682 -0.3692 0.4766 -0.4818 0.7307 -0.5063C0.8236 -0.5152 0.9655 -0.5122 1.0265 -0.4999zM0.8920 -0.3272C0.8019 -0.3059 0.6744 -0.2509 0.5172 -0.1656C0.1997 0.0069 0.1097 0.0977 0.1513 0.2039C0.1688 0.2487 0.1917 0.2776 0.2265 0.2986C0.3097 0.3488 0.4220 0.3375 0.6348 0.2572C0.9775 0.1280 1.2160 -0.0339 1.2240 -0.1427C1.2287 -0.2070 1.1849 -0.2813 1.1220 -0.3156C1.0837 -0.3365 1.0773 -0.3379 1.0151 -0.3393C0.9699 -0.3403 0.9308 -0.3364 0.8920 -0.3272z"/>
</g>
</g>
<g transform="scale(1.0000, 1.0000)">
<g transform="translate(9.3122, 8.6538)">
<path stroke-width="0.0001" stroke-linejoin="round" stroke-linecap="round" stroke="currentColor" fill="currentColor" d="M1.0162 -0.5005C1.1901 -0.4580 1.3000 -0.3601 1.3267 -0.2237C1.3473 -0.1188 1.3091 0.0324 1.2347 0.1410C1.1037 0.3322 0.8787 0.4644 0.6176 0.5036C0.5244 0.5176 0.3659 0.5121 0.2884 0.4921C-0.0297 0.4098 -0.0964 0.0918 0.1475 -0.1799C0.2984 -0.3479 0.5439 -0.4756 0.7758 -0.5066C0.8400 -0.5151 0.9696 -0.5119 1.0162 -0.5005z"/>
</g>
</g>
<g transform="translate(4.5951, 4.9038)">
<rect x="-0.0474" y="-0.5000" width="0.0948" height="4.8133" ry="0.0235" fill="currentColor"/>
</g>
<g transform="scale(1.0000, 1.0000)">
<g transform="translate(21.3161, 6.0288)">
<path stroke-width="0.0001" stroke-linejoin="round" stroke-linecap="round" stroke="currentColor" fill="currentColor" d="M1.0265 -0.4999C1.2152 -0.4618 1.3372 -0.3515 1.3549 -0.2025C1.3692 -0.0828 1.3124 0.0767 1.2094 0.2063C1.0774 0.3724 0.8892 0.4721 0.6459 0.5049C0.5851 0.5131 0.5489 0.5134 0.4433 0.5068C0.3289 0.4996 0.3088 0.4966 0.2606 0.4798C0.1181 0.4300 0.0248 0.3354 0.0042 0.2196C-0.0154 0.1092 0.0352 -0.0503 0.1321 -0.1828C0.2682 -0.3692 0.4766 -0.4818 0.7307 -0.5063C0.8236 -0.5152 0.9655 -0.5122 1.0265 -0.4999zM0.8920 -0.3272C0.8019 -0.3059 0.6744 -0.2509 0.5172 -0.1656C0.1997 0.0069 0.1097 0.0977 0.1513 0.2039C0.1688 0.2487 0.1917 0.2776 0.2265 0.2986C0.3097 0.3488 0.4220 0.3375 0.6348 0.2572C0.9775 0.1280 1.2160 -0.0339 1.2240 -0.1427C1.2287 -0.2070 1.1849 -0.2813 1.1220 -0.3156C1.0837 -0.3365 1.0773 -0.3379 1.0151 -0.3393C0.9699 -0.3403 0.9308 -0.3364 0.8920 -0.3272z"/>
</g>
</g>
<g transform="scale(1.0000, 1.0000)">
<g transform="translate(3.3102, 7.9038)">
<path stroke-width="0.0001" stroke-linejoin="round" stroke-linecap="round" stroke="currentColor" fill="currentColor" d="M1.0162 -0.5005C1.1901 -0.4580 1.3000 -0.3601 1.3267 -0.2237C1.3473 -0.1188 1.3091 0.0324 1.2347 0.1410C1.1037 0.3322 0.8787 0.4644 0.6176 0.5036C0.5244 0.5176 0.3659 0.5121 0.2884 0.4921C-0.0297 0.4098 -0.0964 0.0918 0.1475 -0.1799C0.2984 -0.3479 0.5439 -0.4756 0.7758 -0.5066C0.8400 -0.5151 0.9696 -0.5119 1.0162 -0.5005z"/>
</g>
</g>
<g transform="scale(1.0000, 1.0000)">
<g transform="translate(3.3102, 9.4038)">
<path stroke-width="0.0001" stroke-linejoin="round" stroke-linecap="round" stroke="currentColor" fill="currentColor" d="M1.0162 -0.5005C1.1901 -0.4580 1.3000 -0.3601 1.3267 -0.2237C1.3473 -0.1188 1.3091 0.0324 1.2347 0.1410C1.1037 0.3322 0.8787 0.4644 0.6176 0.5036C0.5244 0.5176 0.3659 0.5121 0.2884 0.4921C-0.0297 0.4098 -0.0964 0.0918 0.1475 -0.1799C0.2984 -0.3479 0.5439 -0.4756 0.7758 -0.5066C0.8400 -0.5151 0.9696 -0.5119 1.0162 -0.5005z"/>
</g>
</g>
<g color="rgb(50.0000%, 50.0000%, 50.0000%)">
<g transform="translate(0.8347, 1.1663)">
<text font-family="sans-serif" font-size="1.1000" text-anchor="start" fill="currentColor">
<tspan>Thirds in C Major</tspan>
</text>
</g>
</g>
<g transform="translate(16.5990, 4.9038)">
<rect x="-0.0474" y="-1.6250" width="0.0948" height="4.4383" ry="0.0235" fill="currentColor"/>
</g>
<g color="rgb(18.0392%, 54.5098%, 34.1176%)">
<g transform="translate(20.4582, 12.4038)">
<text font-family="sans-serif" font-size="1.1000" text-anchor="start" fill="currentColor">
<tspan>Major</tspan>
</text>
</g>
<g transform="translate(20.5888, 13.7402)">
<text font-family="sans-serif" font-size="1.1000" text-anchor="start" fill="currentColor">
<tspan>Third</tspan>
</text>
</g>
</g>
<g transform="scale(1.0000, 1.0000)">
<g transform="translate(21.3161, 7.5288)">
<path stroke-width="0.0001" stroke-linejoin="round" stroke-linecap="round" stroke="currentColor" fill="currentColor" d="M1.0265 -0.4999C1.2152 -0.4618 1.3372 -0.3515 1.3549 -0.2025C1.3692 -0.0828 1.3124 0.0767 1.2094 0.2063C1.0774 0.3724 0.8892 0.4721 0.6459 0.5049C0.5851 0.5131 0.5489 0.5134 0.4433 0.5068C0.3289 0.4996 0.3088 0.4966 0.2606 0.4798C0.1181 0.4300 0.0248 0.3354 0.0042 0.2196C-0.0154 0.1092 0.0352 -0.0503 0.1321 -0.1828C0.2682 -0.3692 0.4766 -0.4818 0.7307 -0.5063C0.8236 -0.5152 0.9655 -0.5122 1.0265 -0.4999zM0.8920 -0.3272C0.8019 -0.3059 0.6744 -0.2509 0.5172 -0.1656C0.1997 0.0069 0.1097 0.0977 0.1513 0.2039C0.1688 0.2487 0.1917 0.2776 0.2265 0.2986C0.3097 0.3488 0.4220 0.3375 0.6348 0.2572C0.9775 0.1280 1.2160 -0.0339 1.2240 -0.1427C1.2287 -0.2070 1.1849 -0.2813 1.1220 -0.3156C1.0837 -0.3365 1.0773 -0.3379 1.0151 -0.3393C0.9699 -0.3403 0.9308 -0.3364 0.8920 -0.3272z"/>
</g>
</g>
<g color="rgb(25.4902%, 41.1765%, 88.2353%)">
<g transform="translate(14.4338, 12.4038)">
<text font-family="sans-serif" font-size="1.1000" text-anchor="start" fill="currentColor">
<tspan>Minor</tspan>
</text>
</g>
<g transform="translate(14.5744, 13.7402)">
<text font-family="sans-serif" font-size="1.1000" text-anchor="start" fill="currentColor">
<tspan>Third</tspan>
</text>
</g>
</g>
<g transform="scale(1.0000, 1.0000)">
<g transform="translate(15.2893, 6.7788)">
<path stroke-width="0.0001" stroke-linejoin="round" stroke-linecap="round" stroke="currentColor" fill="currentColor" d="M1.0265 -0.4999C1.2152 -0.4618 1.3372 -0.3515 1.3549 -0.2025C1.3692 -0.0828 1.3124 0.0767 1.2094 0.2063C1.0774 0.3724 0.8892 0.4721 0.6459 0.5049C0.5851 0.5131 0.5489 0.5134 0.4433 0.5068C0.3289 0.4996 0.3088 0.4966 0.2606 0.4798C0.1181 0.4300 0.0248 0.3354 0.0042 0.2196C-0.0154 0.1092 0.0352 -0.0503 0.1321 -0.1828C0.2682 -0.3692 0.4766 -0.4818 0.7307 -0.5063C0.8236 -0.5152 0.9655 -0.5122 1.0265 -0.4999zM0.8920 -0.3272C0.8019 -0.3059 0.6744 -0.2509 0.5172 -0.1656C0.1997 0.0069 0.1097 0.0977 0.1513 0.2039C0.1688 0.2487 0.1917 0.2776 0.2265 0.2986C0.3097 0.3488 0.4220 0.3375 0.6348 0.2572C0.9775 0.1280 1.2160 -0.0339 1.2240 -0.1427C1.2287 -0.2070 1.1849 -0.2813 1.1220 -0.3156C1.0837 -0.3365 1.0773 -0.3379 1.0151 -0.3393C0.9699 -0.3403 0.9308 -0.3364 0.8920 -0.3272z"/>
</g>
</g>
<g transform="scale(1.0000, 1.0000)">
<g transform="translate(15.3141, 7.9038)">
<path stroke-width="0.0001" stroke-linejoin="round" stroke-linecap="round" stroke="currentColor" fill="currentColor" d="M1.0162 -0.5005C1.1901 -0.4580 1.3000 -0.3601 1.3267 -0.2237C1.3473 -0.1188 1.3091 0.0324 1.2347 0.1410C1.1037 0.3322 0.8787 0.4644 0.6176 0.5036C0.5244 0.5176 0.3659 0.5121 0.2884 0.4921C-0.0297 0.4098 -0.0964 0.0918 0.1475 -0.1799C0.2984 -0.3479 0.5439 -0.4756 0.7758 -0.5066C0.8400 -0.5151 0.9696 -0.5119 1.0162 -0.5005z"/>
</g>
</g>
</svg>
