<svg xmlns="http://www.w3.org/2000/svg" xmlns:xlink="http://www.w3.org/1999/xlink" version="1.2" width="214.88mm" height="43.65mm" viewBox="0 0 71.9288 14.6114">
<style type="text/css">
<![CDATA[
tspan { white-space: pre; }
]]>
</style>
<!-- Page: 1/1 -->
<g transform="translate(0.3347, 3.8453)">
<line stroke-linejoin="round" stroke-linecap="round" stroke-width="0.0729" stroke="currentColor" x1="0.0365" y1="0" x2="71.2958" y2="0"/>
</g>
<g transform="translate(0.3347, 5.3453)">
<line stroke-linejoin="round" stroke-linecap="round" stroke-width="0.0729" stroke="currentColor" x1="0.0365" y1="0" x2="71.2958" y2="0"/>
</g>
<g transform="translate(0.3347, 8.3453)">
<line stroke-linejoin="round" stroke-linecap="round" stroke-width="0.0729" stroke="currentColor" x1="0.0365" y1="0" x2="71.2958" y2="0"/>
</g>
<g transform="translate(0.3347, 9.8453)">
<line stroke-linejoin="round" stroke-linecap="round" stroke-width="0.0729" stroke="currentColor" x1="0.0365" y1="0" x2="71.2958" y2="0"/>
</g>
<g transform="translate(0.3347, 6.8453)">
<rect x="65.8005" y="-0.0740" width="2.5313" height="0.1479" ry="0.0740" fill="currentColor"/>
</g>
<g transform="translate(0.3347, 6.8453)">
<rect x="60.9250" y="-0.0740" width="2.1068" height="0.1479" ry="0.0740" fill="currentColor"/>
</g>
<g transform="translate(0.3347, 6.0953)">
<rect x="55.2005" y="-0.0740" width="2.5313" height="0.1479" ry="0.0740" fill="currentColor"/>
</g>
<g transform="translate(0.3347, 6.8453)">
<rect x="55.2005" y="-0.0740" width="2.5313" height="0.1479" ry="0.0740" fill="currentColor"/>
</g>
<g transform="translate(0.3347, 4.5953)">
<rect x="34.4250" y="-0.0740" width="2.1068" height="0.1479" ry="0.0740" fill="currentColor"/>
</g>
<g transform="translate(0.3347, 2.3453)">
<rect x="12.8005" y="-0.0740" width="2.5313" height="0.1479" ry="0.0740" fill="currentColor"/>
</g>
<g transform="translate(0.3347, 3.0953)">
<rect x="13.2250" y="-0.0740" width="2.1068" height="0.1479" ry="0.0740" fill="currentColor"/>
</g>
<g transform="translate(0.3347, 2.3453)">
<rect x="7.5005" y="-0.0740" width="2.5313" height="0.1479" ry="0.0740" fill="currentColor"/>
</g>
<g transform="translate(0.3347, 2.3453)">
<rect x="2.2005" y="-0.0740" width="2.5313" height="0.1479" ry="0.0740" fill="currentColor"/>
</g>
<g color="rgb(50.0000%, 50.0000%, 50.0000%)">
<g transform="translate(45.8092, 14.3453)">
<text font-family="sans-serif" font-size="1.2347" text-anchor="start" fill="currentColor">
<tspan>E</tspan>
</text>
</g>
</g>
<g transform="scale(1.0000, 1.0000)">
<g transform="translate(56.1347, 6.0953)">
<path stroke-width="0.0001" stroke-linejoin="round" stroke-linecap="round" stroke="currentColor" fill="currentColor" d="M1.0162 -0.5005C1.1901 -0.4580 1.3000 -0.3601 1.3267 -0.2237C1.3473 -0.1188 1.3091 0.0324 1.2347 0.1410C1.1037 0.3322 0.8787 0.4644 0.6176 0.5036C0.5244 0.5176 0.3659 0.5121 0.2884 0.4921C-0.0297 0.4098 -0.0964 0.0918 0.1475 -0.1799C0.2984 -0.3479 0.5439 -0.4756 0.7758 -0.5066C0.8400 -0.5151 0.9696 -0.5119 1.0162 -0.5005z"/>
</g>
</g>
<g transform="translate(45.5822, 6.8453)">
<rect x="-0.0474" y="-1.3133" width="0.0948" height="3.3133" ry="0.0235" fill="currentColor"/>
</g>
<g transform="scale(1.0000, 1.0000)">
<g transform="translate(50.8347, 5.7203)">
<path stroke-width="0.0001" stroke-linejoin="round" stroke-linecap="round" stroke="currentColor" fill="currentColor" d="M1.0162 -0.5005C1.1901 -0.4580 1.3000 -0.3601 1.3267 -0.2237C1.3473 -0.1188 1.3091 0.0324 1.2347 0.1410C1.1037 0.3322 0.8787 0.4644 0.6176 0.5036C0.5244 0.5176 0.3659 0.5121 0.2884 0.4921C-0.0297 0.4098 -0.0964 0.0918 0.1475 -0.1799C0.2984 -0.3479 0.5439 -0.4756 0.7758 -0.5066C0.8400 -0.5151 0.9696 -0.5119 1.0162 -0.5005z"/>
</g>
</g>
<g color="rgb(50.0000%, 50.0000%, 50.0000%)">
<g transform="translate(50.6847, 14.3453)">
<text font-family="sans-serif" font-size="1.2347" text-anchor="start" fill="currentColor">
<tspan>E</tspan>
</text>
</g>
<g transform="translate(51.8680, 14.0953)">
<path transform="scale(0.0022, -0.0022)" d="M27 41l-1 -66v-11c0 -22 1 -44 4 -66c45 38 93 80 93 139c0 33 -14 67 -43 67c-31 0 -52 -30 -53 -63zM-15 -138l-12 595c8 5 18 8 27 8s19 -3 27 -8l-7 -345c25 21 58 34 91 34c52 0 89 -48 89 -102c0 -80 -86 -117 -147 -169c-15 -13 -24 -38 -45 -38
c-13 0 -23 11 -23 25z" fill="currentColor"/>
</g>
</g>
<g transform="translate(50.8822, 6.8453)">
<rect x="-0.0474" y="-0.9383" width="0.0948" height="3.3133" ry="0.0235" fill="currentColor"/>
</g>
<g transform="scale(1.0000, 1.0000)">
<g transform="translate(50.2397, 5.7203)">
<path stroke-width="0.2000" stroke-linejoin="round" stroke-linecap="round" stroke="currentColor" fill="none" d="M0 0.5000L0 -0.5000"/>
</g>
<g transform="translate(50.2397, 6.2203)">
<circle stroke-linejoin="round" stroke-linecap="round" fill="currentColor" stroke="currentColor" stroke-width="0.0100" r="0.2400"/>
</g>
</g>
<g transform="scale(1.0000, 1.0000)">
<g transform="translate(34.9347, 4.5953)">
<path stroke-width="0.0001" stroke-linejoin="round" stroke-linecap="round" stroke="currentColor" fill="currentColor" d="M1.0162 -0.5005C1.1901 -0.4580 1.3000 -0.3601 1.3267 -0.2237C1.3473 -0.1188 1.3091 0.0324 1.2347 0.1410C1.1037 0.3322 0.8787 0.4644 0.6176 0.5036C0.5244 0.5176 0.3659 0.5121 0.2884 0.4921C-0.0297 0.4098 -0.0964 0.0918 0.1475 -0.1799C0.2984 -0.3479 0.5439 -0.4756 0.7758 -0.5066C0.8400 -0.5151 0.9696 -0.5119 1.0162 -0.5005z"/>
</g>
</g>
<g transform="scale(1.0000, 1.0000)">
<g transform="translate(45.5347, 5.3453)">
<path stroke-width="0.0001" stroke-linejoin="round" stroke-linecap="round" stroke="currentColor" fill="currentColor" d="M1.0162 -0.5005C1.1901 -0.4580 1.3000 -0.3601 1.3267 -0.2237C1.3473 -0.1188 1.3091 0.0324 1.2347 0.1410C1.1037 0.3322 0.8787 0.4644 0.6176 0.5036C0.5244 0.5176 0.3659 0.5121 0.2884 0.4921C-0.0297 0.4098 -0.0964 0.0918 0.1475 -0.1799C0.2984 -0.3479 0.5439 -0.4756 0.7758 -0.5066C0.8400 -0.5151 0.9696 -0.5119 1.0162 -0.5005z"/>
</g>
</g>
<g transform="translate(40.2822, 6.8453)">
<rect x="-0.0474" y="-1.6883" width="0.0948" height="3.3133" ry="0.0235" fill="currentColor"/>
</g>
<g color="rgb(50.0000%, 50.0000%, 50.0000%)">
<g transform="translate(40.5494, 14.3453)">
<text font-family="sans-serif" font-size="1.2347" text-anchor="start" fill="currentColor">
<tspan>F</tspan>
</text>
</g>
</g>
<g transform="scale(1.0000, 1.0000)">
<g transform="translate(40.2347, 4.9703)">
<path stroke-width="0.0001" stroke-linejoin="round" stroke-linecap="round" stroke="currentColor" fill="currentColor" d="M1.0162 -0.5005C1.1901 -0.4580 1.3000 -0.3601 1.3267 -0.2237C1.3473 -0.1188 1.3091 0.0324 1.2347 0.1410C1.1037 0.3322 0.8787 0.4644 0.6176 0.5036C0.5244 0.5176 0.3659 0.5121 0.2884 0.4921C-0.0297 0.4098 -0.0964 0.0918 0.1475 -0.1799C0.2984 -0.3479 0.5439 -0.4756 0.7758 -0.5066C0.8400 -0.5151 0.9696 -0.5119 1.0162 -0.5005z"/>
</g>
</g>
<g transform="scale(1.0000, 1.0000)">
<g transform="translate(34.3397, 4.5953)">
<path stroke-width="0.2000" stroke-linejoin="round" stroke-linecap="round" stroke="currentColor" fill="none" d="M0 0.5000L0 -0.5000"/>
</g>
<g transform="translate(34.3397, 5.0953)">
<circle stroke-linejoin="round" stroke-linecap="round" fill="currentColor" stroke="currentColor" stroke-width="0.0100" r="0.2400"/>
</g>
</g>
<g transform="translate(34.9822, 6.8453)">
<rect x="-0.0474" y="-2.0633" width="0.0948" height="3.3133" ry="0.0235" fill="currentColor"/>
</g>
<g color="rgb(50.0000%, 50.0000%, 50.0000%)">
<g transform="translate(34.6944, 14.3453)">
<text font-family="sans-serif" font-size="1.2347" text-anchor="start" fill="currentColor">
<tspan>G</tspan>
</text>
</g>
<g transform="translate(36.0584, 14.0953)">
<path transform="scale(0.0022, -0.0022)" d="M27 41l-1 -66v-11c0 -22 1 -44 4 -66c45 38 93 80 93 139c0 33 -14 67 -43 67c-31 0 -52 -30 -53 -63zM-15 -138l-12 595c8 5 18 8 27 8s19 -3 27 -8l-7 -345c25 21 58 34 91 34c52 0 89 -48 89 -102c0 -80 -86 -117 -147 -169c-15 -13 -24 -38 -45 -38
c-13 0 -23 11 -23 25z" fill="currentColor"/>
</g>
</g>
<g transform="translate(66.7822, 6.8453)">
<rect x="-0.0474" y="0.1867" width="0.0948" height="3.3133" ry="0.0235" fill="currentColor"/>
</g>
<g color="rgb(50.0000%, 50.0000%, 50.0000%)">
<g transform="translate(56.3289, 14.3453)">
<text font-family="sans-serif" font-size="1.2347" text-anchor="start" fill="currentColor">
<tspan>D</tspan>
</text>
</g>
</g>
<g color="rgb(50.0000%, 50.0000%, 50.0000%)">
<g transform="translate(66.9691, 14.3453)">
<text font-family="sans-serif" font-size="1.2347" text-anchor="start" fill="currentColor">
<tspan>C</tspan>
</text>
</g>
</g>
<g transform="scale(1.0000, 1.0000)">
<g transform="translate(66.7347, 6.8453)">
<path stroke-width="0.0001" stroke-linejoin="round" stroke-linecap="round" stroke="currentColor" fill="currentColor" d="M1.0162 -0.5005C1.1901 -0.4580 1.3000 -0.3601 1.3267 -0.2237C1.3473 -0.1188 1.3091 0.0324 1.2347 0.1410C1.1037 0.3322 0.8787 0.4644 0.6176 0.5036C0.5244 0.5176 0.3659 0.5121 0.2884 0.4921C-0.0297 0.4098 -0.0964 0.0918 0.1475 -0.1799C0.2984 -0.3479 0.5439 -0.4756 0.7758 -0.5066C0.8400 -0.5151 0.9696 -0.5119 1.0162 -0.5005z"/>
</g>
</g>
<g transform="scale(1.0000, 1.0000)">
<g transform="translate(60.8397, 6.4703)">
<path stroke-width="0.2000" stroke-linejoin="round" stroke-linecap="round" stroke="currentColor" fill="none" d="M0 0.5000L0 -0.5000"/>
</g>
<g transform="translate(60.8397, 6.9703)">
<circle stroke-linejoin="round" stroke-linecap="round" fill="currentColor" stroke="currentColor" stroke-width="0.0100" r="0.2400"/>
</g>
</g>
<g transform="translate(61.4822, 6.8453)">
<rect x="-0.0474" y="-0.1883" width="0.0948" height="3.3133" ry="0.0235" fill="currentColor"/>
</g>
<g color="rgb(50.0000%, 50.0000%, 50.0000%)">
<g transform="translate(61.2044, 14.3453)">
<text font-family="sans-serif" font-size="1.2347" text-anchor="start" fill="currentColor">
<tspan>D</tspan>
</text>
</g>
<g transform="translate(62.5484, 14.0953)">
<path transform="scale(0.0022, -0.0022)" d="M27 41l-1 -66v-11c0 -22 1 -44 4 -66c45 38 93 80 93 139c0 33 -14 67 -43 67c-31 0 -52 -30 -53 -63zM-15 -138l-12 595c8 5 18 8 27 8s19 -3 27 -8l-7 -345c25 21 58 34 91 34c52 0 89 -48 89 -102c0 -80 -86 -117 -147 -169c-15 -13 -24 -38 -45 -38
c-13 0 -23 11 -23 25z" fill="currentColor"/>
</g>
</g>
<g transform="scale(1.0000, 1.0000)">
<g transform="translate(61.4347, 6.4703)">
<path stroke-width="0.0001" stroke-linejoin="round" stroke-linecap="round" stroke="currentColor" fill="currentColor" d="M1.0162 -0.5005C1.1901 -0.4580 1.3000 -0.3601 1.3267 -0.2237C1.3473 -0.1188 1.3091 0.0324 1.2347 0.1410C1.1037 0.3322 0.8787 0.4644 0.6176 0.5036C0.5244 0.5176 0.3659 0.5121 0.2884 0.4921C-0.0297 0.4098 -0.0964 0.0918 0.1475 -0.1799C0.2984 -0.3479 0.5439 -0.4756 0.7758 -0.5066C0.8400 -0.5151 0.9696 -0.5119 1.0162 -0.5005z"/>
</g>
</g>
<g transform="translate(56.1822, 6.8453)">
<rect x="-0.0474" y="-0.5633" width="0.0948" height="3.3133" ry="0.0235" fill="currentColor"/>
</g>
<g transform="scale(1.0000, 1.0000)">
<g transform="translate(3.1347, 2.3453)">
<path stroke-width="0.0001" stroke-linejoin="round" stroke-linecap="round" stroke="currentColor" fill="currentColor" d="M1.0162 -0.5005C1.1901 -0.4580 1.3000 -0.3601 1.3267 -0.2237C1.3473 -0.1188 1.3091 0.0324 1.2347 0.1410C1.1037 0.3322 0.8787 0.4644 0.6176 0.5036C0.5244 0.5176 0.3659 0.5121 0.2884 0.4921C-0.0297 0.4098 -0.0964 0.0918 0.1475 -0.1799C0.2984 -0.3479 0.5439 -0.4756 0.7758 -0.5066C0.8400 -0.5151 0.9696 -0.5119 1.0162 -0.5005z"/>
</g>
</g>
<g transform="translate(19.0822, 6.8453)">
<rect x="-0.0474" y="-3.1883" width="0.0948" height="3.3133" ry="0.0235" fill="currentColor"/>
</g>
<g color="rgb(50.0000%, 50.0000%, 50.0000%)">
<g transform="translate(19.2791, 14.3453)">
<text font-family="sans-serif" font-size="1.2347" text-anchor="start" fill="currentColor">
<tspan>A</tspan>
</text>
</g>
</g>
<g transform="scale(1.0000, 1.0000)">
<g transform="translate(19.0347, 3.4703)">
<path stroke-width="0.0001" stroke-linejoin="round" stroke-linecap="round" stroke="currentColor" fill="currentColor" d="M1.0162 -0.5005C1.1901 -0.4580 1.3000 -0.3601 1.3267 -0.2237C1.3473 -0.1188 1.3091 0.0324 1.2347 0.1410C1.1037 0.3322 0.8787 0.4644 0.6176 0.5036C0.5244 0.5176 0.3659 0.5121 0.2884 0.4921C-0.0297 0.4098 -0.0964 0.0918 0.1475 -0.1799C0.2984 -0.3479 0.5439 -0.4756 0.7758 -0.5066C0.8400 -0.5151 0.9696 -0.5119 1.0162 -0.5005z"/>
</g>
</g>
<g color="rgb(50.0000%, 50.0000%, 50.0000%)">
<g transform="translate(3.3691, 14.3453)">
<text font-family="sans-serif" font-size="1.2347" text-anchor="start" fill="currentColor">
<tspan>C</tspan>
</text>
</g>
</g>
<g transform="scale(1.0000, 1.0000)">
<g transform="translate(13.1397, 3.0953)">
<path stroke-width="0.2000" stroke-linejoin="round" stroke-linecap="round" stroke="currentColor" fill="none" d="M0 0.5000L0 -0.5000"/>
</g>
<g transform="translate(13.1397, 3.5953)">
<circle stroke-linejoin="round" stroke-linecap="round" fill="currentColor" stroke="currentColor" stroke-width="0.0100" r="0.2400"/>
</g>
</g>
<g transform="translate(3.1822, 6.8453)">
<rect x="-0.0474" y="-4.3133" width="0.0948" height="3.3133" ry="0.0235" fill="currentColor"/>
</g>
<g transform="translate(13.7822, 6.8453)">
<rect x="-0.0474" y="-3.5633" width="0.0948" height="3.3133" ry="0.0235" fill="currentColor"/>
</g>
<g color="rgb(50.0000%, 50.0000%, 50.0000%)">
<g transform="translate(13.5546, 14.3453)">
<text font-family="sans-serif" font-size="1.2347" text-anchor="start" fill="currentColor">
<tspan>B</tspan>
</text>
</g>
<g transform="translate(14.7982, 14.0953)">
<path transform="scale(0.0022, -0.0022)" d="M27 41l-1 -66v-11c0 -22 1 -44 4 -66c45 38 93 80 93 139c0 33 -14 67 -43 67c-31 0 -52 -30 -53 -63zM-15 -138l-12 595c8 5 18 8 27 8s19 -3 27 -8l-7 -345c25 21 58 34 91 34c52 0 89 -48 89 -102c0 -80 -86 -117 -147 -169c-15 -13 -24 -38 -45 -38
c-13 0 -23 11 -23 25z" fill="currentColor"/>
</g>
</g>
<g transform="scale(1.0000, 1.0000)">
<g transform="translate(13.7347, 3.0953)">
<path stroke-width="0.0001" stroke-linejoin="round" stroke-linecap="round" stroke="currentColor" fill="currentColor" d="M1.0162 -0.5005C1.1901 -0.4580 1.3000 -0.3601 1.3267 -0.2237C1.3473 -0.1188 1.3091 0.0324 1.2347 0.1410C1.1037 0.3322 0.8787 0.4644 0.6176 0.5036C0.5244 0.5176 0.3659 0.5121 0.2884 0.4921C-0.0297 0.4098 -0.0964 0.0918 0.1475 -0.1799C0.2984 -0.3479 0.5439 -0.4756 0.7758 -0.5066C0.8400 -0.5151 0.9696 -0.5119 1.0162 -0.5005z"/>
</g>
</g>
<g transform="translate(8.4822, 6.8453)">
<rect x="-0.0474" y="-3.9383" width="0.0948" height="3.3133" ry="0.0235" fill="currentColor"/>
</g>
<g color="rgb(50.0000%, 50.0000%, 50.0000%)">
<g transform="translate(8.6791, 14.3453)">
<text font-family="sans-serif" font-size="1.2347" text-anchor="start" fill="currentColor">
<tspan>B</tspan>
</text>
</g>
</g>
<g transform="scale(1.0000, 1.0000)">
<g transform="translate(8.4347, 2.7203)">
<path stroke-width="0.0001" stroke-linejoin="round" stroke-linecap="round" stroke="currentColor" fill="currentColor" d="M1.0162 -0.5005C1.1901 -0.4580 1.3000 -0.3601 1.3267 -0.2237C1.3473 -0.1188 1.3091 0.0324 1.2347 0.1410C1.1037 0.3322 0.8787 0.4644 0.6176 0.5036C0.5244 0.5176 0.3659 0.5121 0.2884 0.4921C-0.0297 0.4098 -0.0964 0.0918 0.1475 -0.1799C0.2984 -0.3479 0.5439 -0.4756 0.7758 -0.5066C0.8400 -0.5151 0.9696 -0.5119 1.0162 -0.5005z"/>
</g>
</g>
<g color="rgb(50.0000%, 50.0000%, 50.0000%)">
<g transform="translate(29.8189, 14.3453)">
<text font-family="sans-serif" font-size="1.2347" text-anchor="start" fill="currentColor">
<tspan>G</tspan>
</text>
</g>
</g>
<g transform="translate(29.6822, 6.8453)">
<rect x="-0.0474" y="-2.4383" width="0.0948" height="3.3133" ry="0.0235" fill="currentColor"/>
</g>
<g transform="scale(1.0000, 1.0000)">
<g transform="translate(29.6347, 4.2203)">
<path stroke-width="0.0001" stroke-linejoin="round" stroke-linecap="round" stroke="currentColor" fill="currentColor" d="M1.0162 -0.5005C1.1901 -0.4580 1.3000 -0.3601 1.3267 -0.2237C1.3473 -0.1188 1.3091 0.0324 1.2347 0.1410C1.1037 0.3322 0.8787 0.4644 0.6176 0.5036C0.5244 0.5176 0.3659 0.5121 0.2884 0.4921C-0.0297 0.4098 -0.0964 0.0918 0.1475 -0.1799C0.2984 -0.3479 0.5439 -0.4756 0.7758 -0.5066C0.8400 -0.5151 0.9696 -0.5119 1.0162 -0.5005z"/>
</g>
</g>
<g transform="scale(1.0000, 1.0000)">
<g transform="translate(23.7397, 3.8453)">
<path stroke-width="0.2000" stroke-linejoin="round" stroke-linecap="round" stroke="currentColor" fill="none" d="M0 0.5000L0 -0.5000"/>
</g>
<g transform="translate(23.7397, 4.3453)">
<circle stroke-linejoin="round" stroke-linecap="round" fill="currentColor" stroke="currentColor" stroke-width="0.0100" r="0.2400"/>
</g>
</g>
<g transform="translate(24.3822, 6.8453)">
<rect x="-0.0474" y="-2.8133" width="0.0948" height="3.3133" ry="0.0235" fill="currentColor"/>
</g>
<g color="rgb(50.0000%, 50.0000%, 50.0000%)">
<g transform="translate(24.1546, 14.3453)">
<text font-family="sans-serif" font-size="1.2347" text-anchor="start" fill="currentColor">
<tspan>A</tspan>
</text>
</g>
<g transform="translate(25.3982, 14.0953)">
<path transform="scale(0.0022, -0.0022)" d="M27 41l-1 -66v-11c0 -22 1 -44 4 -66c45 38 93 80 93 139c0 33 -14 67 -43 67c-31 0 -52 -30 -53 -63zM-15 -138l-12 595c8 5 18 8 27 8s19 -3 27 -8l-7 -345c25 21 58 34 91 34c52 0 89 -48 89 -102c0 -80 -86 -117 -147 -169c-15 -13 -24 -38 -45 -38
c-13 0 -23 11 -23 25z" fill="currentColor"/>
</g>
</g>
<g transform="scale(1.0000, 1.0000)">
<g transform="translate(24.3347, 3.8453)">
<path stroke-width="0.0001" stroke-linejoin="round" stroke-linecap="round" stroke="currentColor" fill="currentColor" d="M1.0162 -0.5005C1.1901 -0.4580 1.3000 -0.3601 1.3267 -0.2237C1.3473 -0.1188 1.3091 0.0324 1.2347 0.1410C1.1037 0.3322 0.8787 0.4644 0.6176 0.5036C0.5244 0.5176 0.3659 0.5121 0.2884 0.4921C-0.0297 0.4098 -0.0964 0.0918 0.1475 -0.1799C0.2984 -0.3479 0.5439 -0.4756 0.7758 -0.5066C0.8400 -0.5151 0.9696 -0.5119 1.0162 -0.5005z"/>
</g>
</g>
<g color="rgb(50.0000%, 50.0000%, 50.0000%)">
<g transform="translate(0.8347, 1.3337)">
<text font-family="sans-serif" font-size="1.1000" text-anchor="start" fill="currentColor">
<tspan>Chromatic Scale</tspan>
</text>
</g>
</g>
</svg>
