<?xml version="1.0" encoding="UTF-8" standalone="no"?>
<!-- Created with Inkscape (http://www.inkscape.org/) -->

<svg
   xmlns:dc="http://purl.org/dc/elements/1.1/"
   xmlns:cc="http://creativecommons.org/ns#"
   xmlns:rdf="http://www.w3.org/1999/02/22-rdf-syntax-ns#"
   xmlns:svg="http://www.w3.org/2000/svg"
   xmlns="http://www.w3.org/2000/svg"
   xmlns:xlink="http://www.w3.org/1999/xlink"
   version="1.2"
   width="506.06277"
   height="246.55406"
   viewBox="0 0 81.273699 39.59659"
   id="svg2">
  <metadata
     id="metadata1018">
    <rdf:RDF>
      <cc:Work
         rdf:about="">
        <dc:format>image/svg+xml</dc:format>
        <dc:type
           rdf:resource="http://purl.org/dc/dcmitype/StillImage" />
        <dc:title></dc:title>
      </cc:Work>
    </rdf:RDF>
  </metadata>
  <defs
     id="defs1016" />
  <text
     x="-17.749357"
     y="-78.922668"
     id="text4"
     style="font-size:2.20009995px;text-anchor:start;fill:currentColor;font-family:Century Schoolbook L">
    <tspan
       id="tspan6" />
  </text>
  <rect
     width="3.455025"
     height="0.29242501"
     ry="0.14612499"
     x="51.319023"
     y="8.5756216"
     id="rect516"
     style="fill:currentColor" />
  <rect
     width="3.448025"
     height="0.29242501"
     ry="0.14612499"
     x="60.774101"
     y="8.5756216"
     id="rect518"
     style="fill:currentColor" />
  <line
     x1="0.89050019"
     y1="4.0258012"
     x2="80.383202"
     y2="4.0258012"
     id="line520"
     style="stroke:currentColor;stroke-width:0.175;stroke-linecap:round;stroke-linejoin:round" />
  <line
     x1="0.89050019"
     y1="6.3737779"
     x2="80.383202"
     y2="6.3737779"
     id="line522"
     style="stroke:currentColor;stroke-width:0.175;stroke-linecap:round;stroke-linejoin:round" />
  <line
     x1="0.89050019"
     y1="11.069549"
     x2="80.383202"
     y2="11.069549"
     id="line524"
     style="stroke:currentColor;stroke-width:0.175;stroke-linecap:round;stroke-linejoin:round" />
  <line
     x1="0.89050019"
     y1="13.417525"
     x2="80.383202"
     y2="13.417525"
     id="line526"
     style="stroke:currentColor;stroke-width:0.175;stroke-linecap:round;stroke-linejoin:round" />
  <line
     x1="0.89050019"
     y1="27.971754"
     x2="80.383202"
     y2="27.971754"
     id="line528"
     style="stroke:currentColor;stroke-width:0.175;stroke-linecap:round;stroke-linejoin:round" />
  <line
     x1="0.89050019"
     y1="26.221754"
     x2="80.383202"
     y2="26.221754"
     id="line530"
     style="stroke:currentColor;stroke-width:0.175;stroke-linecap:round;stroke-linejoin:round" />
  <line
     x1="0.89050019"
     y1="24.471754"
     x2="80.383202"
     y2="24.471754"
     id="line532"
     style="stroke:currentColor;stroke-width:0.175;stroke-linecap:round;stroke-linejoin:round" />
  <line
     x1="0.89050019"
     y1="22.721754"
     x2="80.383202"
     y2="22.721754"
     id="line534"
     style="stroke:currentColor;stroke-width:0.175;stroke-linecap:round;stroke-linejoin:round" />
  <line
     x1="0.89050019"
     y1="20.971754"
     x2="80.383202"
     y2="20.971754"
     id="line536"
     style="stroke:currentColor;stroke-width:0.175;stroke-linecap:round;stroke-linejoin:round" />
  <rect
     width="0.22749999"
     height="5.8362498"
     ry="0.07"
     x="70.949997"
     y="7.2496476"
     id="rect538"
     style="fill:currentColor" />
  <a
     xlink:href="textedit:///Users/paul/lilypond_stuff/clairnote-site-images/keysigs/keysigs-major.ly:52:2:3"
     transform="matrix(1.75,0,0,1.75,-9.1555495,-76.196951)"
     id="a540">
    <g
       id="g542"
       style="color:#7f7f7f">
      <text
         transform="translate(46.1307,64.3569)"
         id="text544"
         style="font-size:1.10029995px;text-anchor:start;fill:currentColor;font-family:sans-serif">
        <tspan
           id="tspan546">E</tspan>
      </text>
      <text
         transform="translate(45.4308,65.6933)"
         id="text548"
         style="font-size:1.10029995px;text-anchor:start;fill:currentColor;font-family:sans-serif">
        <tspan
           id="tspan550">Flat</tspan>
      </text>
    </g>
  </a>
  <a
     xlink:href="textedit:///Users/paul/lilypond_stuff/clairnote-site-images/keysigs/keysigs-major.ly:21:21:22"
     transform="matrix(1.75,0,0,1.75,-9.1555495,-79.408952)"
     id="a552">
    <path
       d="m 220,138 c 56,0 109,-29 109,-91 0,-72 -56,-121 -103,-149 -36,-21 -76,-36 -117,-36 -56,0 -109,29 -109,91 0,72 56,121 103,149 36,21 76,36 117,36 z"
       transform="matrix(0.004,0,0,-0.004,45.814,57.8604)"
       id="path554"
       style="fill:currentColor" />
  </a>
  <g
     transform="matrix(1.7284546,0.27376031,-0.27376031,1.7284546,5.3568765,-91.067459)"
     id="g556">
    <a
       xlink:href="textedit:///Users/paul/lilypond_stuff/clairnote-site-images/keysigs/keysigs-major.ly:21:21:22"
       id="a558">
      <g
         id="g560">
        <g
           transform="scale(0.945,1)"
           id="g562">
          <path
             d="m 315,65 c 0,24 -21,41 -42,41 -4,0 -8,0 -12,-1 C 230,96 184,65 147,41 110,17 63,-12 43,-37 36,-45 32,-55 32,-65 c 0,-24 21,-41 42,-41 4,0 8,0 12,1 31,9 78,40 115,64 37,24 84,53 104,78 7,8 10,18 10,28 z m -51,72 c 47,0 83,-21 83,-72 0,-19 -4,-37 -10,-56 -12,-38 -32,-74 -65,-96 -54,-36 -113,-51 -188,-51 -47,0 -84,22 -84,73 0,19 5,37 11,56 12,38 31,74 64,96 54,36 114,50 189,50 z"
             transform="matrix(0.004,0,0,-0.004,48.4805,49.3541)"
             id="path564"
             style="fill:currentColor" />
        </g>
      </g>
    </a>
  </g>
  <rect
     width="0.22749999"
     height="5.79635"
     ry="0.07"
     x="61.348625"
     y="23.050398"
     id="rect566"
     style="fill:currentColor" />
  <rect
     width="0.22749999"
     height="5.8362498"
     ry="0.07"
     x="61.279678"
     y="8.4235525"
     id="rect568"
     style="fill:currentColor" />
  <a
     xlink:href="textedit:///Users/paul/lilypond_stuff/clairnote-site-images/keysigs/keysigs-major.ly:51:2:3"
     transform="matrix(1.75,0,0,1.75,-9.1555495,-76.196951)"
     id="a570">
    <g
       id="g572"
       style="color:#7f7f7f">
      <text
         transform="translate(40.5194,64.3569)"
         id="text574"
         style="font-size:1.10029995px;text-anchor:start;fill:currentColor;font-family:sans-serif">
        <tspan
           id="tspan576">D</tspan>
      </text>
      <text
         transform="translate(39.9048,65.6933)"
         id="text578"
         style="font-size:1.10029995px;text-anchor:start;fill:currentColor;font-family:sans-serif">
        <tspan
           id="tspan580">Flat</tspan>
      </text>
    </g>
  </a>
  <a
     xlink:href="textedit:///Users/paul/lilypond_stuff/clairnote-site-images/keysigs/keysigs-major.ly:21:17:18"
     transform="matrix(1.75,0,0,1.75,-9.1555495,-79.408952)"
     id="a582">
    <path
       d="m 220,138 c 56,0 109,-29 109,-91 0,-72 -56,-121 -103,-149 -36,-21 -76,-36 -117,-36 -56,0 -109,29 -109,91 0,72 56,121 103,149 36,21 76,36 117,36 z"
       transform="matrix(0.004,0,0,-0.004,40.2881,58.3604)"
       id="path584"
       style="fill:currentColor" />
  </a>
  <g
     transform="matrix(1.7284546,0.27376031,-0.27376031,1.7284546,5.4214845,-89.540232)"
     id="g586">
    <a
       xlink:href="textedit:///Users/paul/lilypond_stuff/clairnote-site-images/keysigs/keysigs-major.ly:21:17:18"
       id="a588">
      <g
         id="g590">
        <g
           transform="scale(0.945,1)"
           id="g592">
          <path
             d="m 315,65 c 0,24 -21,41 -42,41 -4,0 -8,0 -12,-1 C 230,96 184,65 147,41 110,17 63,-12 43,-37 36,-45 32,-55 32,-65 c 0,-24 21,-41 42,-41 4,0 8,0 12,1 31,9 78,40 115,64 37,24 84,53 104,78 7,8 10,18 10,28 z m -51,72 c 47,0 83,-21 83,-72 0,-19 -4,-37 -10,-56 -12,-38 -32,-74 -65,-96 -54,-36 -113,-51 -188,-51 -47,0 -84,22 -84,73 0,19 5,37 11,56 12,38 31,74 64,96 54,36 114,50 189,50 z"
             transform="matrix(0.004,0,0,-0.004,42.6329,50.025)"
             id="path594"
             style="fill:currentColor" />
        </g>
      </g>
    </a>
  </g>
  <rect
     width="0.22749999"
     height="5.79635"
     ry="0.07"
     x="51.894775"
     y="23.925398"
     id="rect596"
     style="fill:currentColor" />
  <rect
     width="0.22749999"
     height="5.7512002"
     ry="0.07"
     x="51.848572"
     y="9.0104971"
     id="rect598"
     style="fill:currentColor" />
  <a
     xlink:href="textedit:///Users/paul/lilypond_stuff/clairnote-site-images/keysigs/keysigs-major.ly:50:2:3"
     transform="matrix(1.75,0,0,1.75,-9.1555495,-76.196951)"
     id="a600">
    <g
       id="g602"
       style="color:#7f7f7f">
      <text
         transform="translate(35.1513,64.3569)"
         id="text604"
         style="font-size:1.10029995px;text-anchor:start;fill:currentColor;font-family:sans-serif">
        <tspan
           id="tspan606">C</tspan>
      </text>
    </g>
  </a>
  <a
     xlink:href="textedit:///Users/paul/lilypond_stuff/clairnote-site-images/keysigs/keysigs-major.ly:21:15:16"
     transform="matrix(1.75,0,0,1.75,-9.1555495,-79.408952)"
     id="a608">
    <path
       d="m 220,138 c 56,0 109,-29 109,-91 0,-72 -56,-121 -103,-149 -36,-21 -76,-36 -117,-36 -56,0 -109,29 -109,91 0,72 56,121 103,149 36,21 76,36 117,36 z"
       transform="matrix(0.004,0,0,-0.004,34.8859,58.8604)"
       id="path610"
       style="fill:currentColor" />
  </a>
  <g
     transform="matrix(1.7284546,0.27376031,-0.27376031,1.7284546,5.3969395,-88.054454)"
     id="g612">
    <a
       xlink:href="textedit:///Users/paul/lilypond_stuff/clairnote-site-images/keysigs/keysigs-major.ly:21:15:16"
       id="a614">
      <g
         id="g616">
        <path
           d="m 220,138 c 56,0 109,-29 109,-91 0,-72 -56,-121 -103,-149 -36,-21 -76,-36 -117,-36 -56,0 -109,29 -109,91 0,72 56,121 103,149 36,21 76,36 117,36 z"
           transform="matrix(0.004,0,0,-0.004,34.8859,50.3604)"
           id="path618"
           style="fill:currentColor" />
      </g>
    </a>
  </g>
  <rect
     width="0.22749999"
     height="5.79635"
     ry="0.07"
     x="15.642825"
     y="20.971754"
     id="rect620"
     style="fill:currentColor" />
  <rect
     width="0.22749999"
     height="5.79635"
     ry="0.07"
     x="25.313328"
     y="20.096754"
     id="rect622"
     style="fill:currentColor" />
  <g
     transform="matrix(1.7284546,0.27376031,-0.27376031,1.7284546,5.5032135,-83.534947)"
     id="g624">
    <a
       xlink:href="textedit:///Users/paul/lilypond_stuff/clairnote-site-images/keysigs/keysigs-major.ly:21:5:6"
       id="a626">
      <g
         id="g628">
        <g
           transform="scale(0.945,1)"
           id="g630">
          <path
             d="m 315,65 c 0,24 -21,41 -42,41 -4,0 -8,0 -12,-1 C 230,96 184,65 147,41 110,17 63,-12 43,-37 36,-45 32,-55 32,-65 c 0,-24 21,-41 42,-41 4,0 8,0 12,1 31,9 78,40 115,64 37,24 84,53 104,78 7,8 10,18 10,28 z m -51,72 c 47,0 83,-21 83,-72 0,-19 -4,-37 -10,-56 -12,-38 -32,-74 -65,-96 -54,-36 -113,-51 -188,-51 -47,0 -84,22 -84,73 0,19 5,37 11,56 12,38 31,74 64,96 54,36 114,50 189,50 z"
             transform="matrix(0.004,0,0,-0.004,19.5876,52.0375)"
             id="path632"
             style="fill:currentColor" />
        </g>
      </g>
    </a>
  </g>
  <rect
     width="0.22749999"
     height="5.79635"
     ry="0.07"
     x="71.018951"
     y="22.175398"
     id="rect634"
     style="fill:currentColor" />
  <a
     xlink:href="textedit:///Users/paul/lilypond_stuff/clairnote-site-images/keysigs/keysigs-major.ly:21:5:6"
     transform="matrix(1.75,0,0,1.75,-9.1555495,-79.408952)"
     id="a636">
    <path
       d="m 220,138 c 56,0 109,-29 109,-91 0,-72 -56,-121 -103,-149 -36,-21 -76,-36 -117,-36 -56,0 -109,29 -109,91 0,72 56,121 103,149 36,21 76,36 117,36 z"
       transform="matrix(0.004,0,0,-0.004,18.5103,60.3604)"
       id="path638"
       style="fill:currentColor" />
  </a>
  <a
     xlink:href="textedit:///Users/paul/lilypond_stuff/clairnote-site-images/keysigs/keysigs-major.ly:47:2:3"
     transform="matrix(1.75,0,0,1.75,-9.1555495,-76.196951)"
     id="a640">
    <g
       id="g642"
       style="color:#7f7f7f">
      <text
         transform="translate(18.7416,64.3569)"
         id="text644"
         style="font-size:1.10029995px;text-anchor:start;fill:currentColor;font-family:sans-serif">
        <tspan
           id="tspan646">G</tspan>
      </text>
    </g>
  </a>
  <g
     transform="matrix(1.7284546,0.27376031,-0.27376031,1.7284546,5.5677945,-82.007722)"
     id="g648">
    <a
       xlink:href="textedit:///Users/paul/lilypond_stuff/clairnote-site-images/keysigs/keysigs-major.ly:21:2:3"
       id="a650">
      <g
         id="g652">
        <g
           transform="scale(0.945,1)"
           id="g654">
          <path
             d="m 315,65 c 0,24 -21,41 -42,41 -4,0 -8,0 -12,-1 C 230,96 184,65 147,41 110,17 63,-12 43,-37 36,-45 32,-55 32,-65 c 0,-24 21,-41 42,-41 4,0 8,0 12,1 31,9 78,40 115,64 37,24 84,53 104,78 7,8 10,18 10,28 z m -51,72 c 47,0 83,-21 83,-72 0,-19 -4,-37 -10,-56 -12,-38 -32,-74 -65,-96 -54,-36 -113,-51 -188,-51 -47,0 -84,22 -84,73 0,19 5,37 11,56 12,38 31,74 64,96 54,36 114,50 189,50 z"
             transform="matrix(0.004,0,0,-0.004,13.7401,52.7083)"
             id="path656"
             style="fill:currentColor" />
        </g>
      </g>
    </a>
  </g>
  <rect
     width="0.22749999"
     height="5.8362498"
     ry="0.07"
     x="25.377552"
     y="5.5316758"
     id="rect658"
     style="fill:currentColor" />
  <a
     xlink:href="textedit:///Users/paul/lilypond_stuff/clairnote-site-images/keysigs/keysigs-major.ly:21:2:3"
     transform="matrix(1.75,0,0,1.75,-9.1555495,-79.408952)"
     id="a660">
    <path
       d="m 220,138 c 56,0 109,-29 109,-91 0,-72 -56,-121 -103,-149 -36,-21 -76,-36 -117,-36 -56,0 -109,29 -109,91 0,72 56,121 103,149 36,21 76,36 117,36 z"
       transform="matrix(0.004,0,0,-0.004,12.9844,60.8604)"
       id="path662"
       style="fill:currentColor" />
  </a>
  <a
     xlink:href="textedit:///Users/paul/lilypond_stuff/clairnote-site-images/keysigs/keysigs-major.ly:46:2:3"
     transform="matrix(1.75,0,0,1.75,-9.1555495,-76.196951)"
     id="a664">
    <g
       id="g666"
       style="color:#7f7f7f">
      <text
         transform="translate(13.3181,64.3569)"
         id="text668"
         style="font-size:1.10029995px;text-anchor:start;fill:currentColor;font-family:sans-serif">
        <tspan
           id="tspan670">F</tspan>
      </text>
    </g>
  </a>
  <rect
     width="0.22749999"
     height="5.8362498"
     ry="0.07"
     x="15.707225"
     y="6.7055726"
     id="rect672"
     style="fill:currentColor" />
  <a
     xlink:href="textedit:///Users/paul/lilypond_stuff/clairnote-site-images/keysigs/keysigs-major.ly:20:2:3"
     transform="matrix(1.75,0,0,1.75,-9.1555495,-79.408952)"
     id="a674">
    <path
       d="m 27,41 -1,-66 v -11 c 0,-22 1,-44 4,-66 45,38 93,80 93,139 0,33 -14,67 -43,67 C 49,104 28,74 27,41 z m -42,-179 -12,595 c 8,5 18,8 27,8 9,0 19,-3 27,-8 L 20,112 c 25,21 58,34 91,34 52,0 89,-48 89,-102 0,-80 -86,-117 -147,-169 -15,-13 -24,-38 -45,-38 -13,0 -23,11 -23,25 z"
       transform="matrix(0.004,0,0,-0.004,7.0243,59.3604)"
       id="path676"
       style="fill:currentColor" />
    <path
       d="m 27,41 -1,-66 v -11 c 0,-22 1,-44 4,-66 45,38 93,80 93,139 0,33 -14,67 -43,67 C 49,104 28,74 27,41 z m -42,-179 -12,595 c 8,5 18,8 27,8 9,0 19,-3 27,-8 L 20,112 c 25,21 58,34 91,34 52,0 89,-48 89,-102 0,-80 -86,-117 -147,-169 -15,-13 -24,-38 -45,-38 -13,0 -23,11 -23,25 z"
       transform="matrix(0.004,0,0,-0.004,7.9443,57.8604)"
       id="path678"
       style="fill:currentColor" />
    <path
       d="m 27,41 -1,-66 v -11 c 0,-22 1,-44 4,-66 45,38 93,80 93,139 0,33 -14,67 -43,67 C 49,104 28,74 27,41 z m -42,-179 -12,595 c 8,5 18,8 27,8 9,0 19,-3 27,-8 L 20,112 c 25,21 58,34 91,34 52,0 89,-48 89,-102 0,-80 -86,-117 -147,-169 -15,-13 -24,-38 -45,-38 -13,0 -23,11 -23,25 z"
       transform="matrix(0.004,0,0,-0.004,8.8643,59.8604)"
       id="path680"
       style="fill:currentColor" />
    <path
       d="m 27,41 -1,-66 v -11 c 0,-22 1,-44 4,-66 45,38 93,80 93,139 0,33 -14,67 -43,67 C 49,104 28,74 27,41 z m -42,-179 -12,595 c 8,5 18,8 27,8 9,0 19,-3 27,-8 L 20,112 c 25,21 58,34 91,34 52,0 89,-48 89,-102 0,-80 -86,-117 -147,-169 -15,-13 -24,-38 -45,-38 -13,0 -23,11 -23,25 z"
       transform="matrix(0.004,0,0,-0.004,9.7844,58.3604)"
       id="path682"
       style="fill:currentColor" />
  </a>
  <a
     xlink:href="textedit:///Users/paul/lilypond_stuff/clairnote-site-images/keysigs/keysigs-major.ly:20:2:3"
     transform="matrix(1.75,0,0,1.75,-9.1555495,-79.408952)"
     id="a684">
    <g
       id="g686">
      <circle
         cx="0"
         cy="0"
         r="0"
         transform="translate(6.792,51.7004)"
         id="circle688"
         style="fill:currentColor;stroke:currentColor;stroke-width:0;stroke-linecap:round;stroke-linejoin:round" />
      <circle
         cx="0"
         cy="0"
         r="0.30000001"
         transform="translate(6.792,51.7004)"
         id="circle690"
         style="fill:currentColor;stroke:currentColor;stroke-width:0.001;stroke-linecap:round;stroke-linejoin:round" />
      <circle
         cx="0"
         cy="0"
         r="0.30000001"
         transform="translate(6.792,51.0304)"
         id="circle692"
         style="fill:currentColor;stroke:currentColor;stroke-width:0.001;stroke-linecap:round;stroke-linejoin:round" />
      <circle
         cx="0"
         cy="0"
         r="0.30000001"
         transform="translate(6.792,50.3604)"
         id="circle694"
         style="fill:currentColor;stroke:currentColor;stroke-width:0.001;stroke-linecap:round;stroke-linejoin:round" />
      <circle
         cx="0"
         cy="0"
         r="0.25"
         transform="translate(7.392,50.0254)"
         id="circle696"
         style="fill:none;stroke:currentColor;stroke-width:0.15000001;stroke-linecap:round;stroke-linejoin:round" />
      <circle
         cx="0"
         cy="0"
         r="0.25"
         transform="translate(7.392,49.3554)"
         id="circle698"
         style="fill:none;stroke:currentColor;stroke-width:0.15000001;stroke-linecap:round;stroke-linejoin:round" />
      <path
         d="m 0.55,0 c 0,-0.33 -1.1,-0.33 -1.1,0 0,0.33 1.1,0.33 1.1,0 z"
         transform="translate(7.392,48.6854)"
         id="path700"
         style="fill:none;stroke:currentColor;stroke-width:0.15000001;stroke-linecap:round;stroke-linejoin:round" />
      <circle
         cx="0"
         cy="0"
         r="0.25"
         transform="translate(7.392,48.0154)"
         id="circle702"
         style="fill:none;stroke:currentColor;stroke-width:0.15000001;stroke-linecap:round;stroke-linejoin:round" />
      <g
         transform="scale(0.6,0.6)"
         id="g704">
        <text
           transform="translate(12.1343,78.2984)"
           id="text706"
           style="font-size:2.20009995px;text-anchor:start;fill:currentColor;font-family:Century Schoolbook L">
          <tspan
             id="tspan708">4</tspan>
        </text>
      </g>
      <path
         d="M 0,0 0,-1"
         transform="translate(6.7356,46.9354)"
         id="path710"
         style="fill:none;stroke:currentColor;stroke-width:0.2;stroke-linecap:round;stroke-linejoin:round" />
      <circle
         cx="0"
         cy="0"
         r="0.23999999"
         transform="translate(6.7356,46.9354)"
         id="circle712"
         style="fill:currentColor;stroke:currentColor;stroke-width:0.01;stroke-linecap:round;stroke-linejoin:round" />
    </g>
  </a>
  <rect
     width="0.22749999"
     height="5.5046248"
     ry="0.07"
     x="42.377228"
     y="24.800398"
     id="rect714"
     style="fill:currentColor" />
  <rect
     width="0.22749999"
     height="5.8362498"
     ry="0.07"
     x="44.4991"
     y="3.7706513"
     id="rect716"
     style="fill:currentColor" />
  <a
     xlink:href="textedit:///Users/paul/lilypond_stuff/clairnote-site-images/keysigs/keysigs-major.ly:49:2:3"
     transform="matrix(1.75,0,0,1.75,-9.1555495,-76.196951)"
     id="a718">
    <g
       id="g720"
       style="color:#7f7f7f">
      <text
         transform="translate(29.7298,64.3569)"
         id="text722"
         style="font-size:1.10029995px;text-anchor:start;fill:currentColor;font-family:sans-serif">
        <tspan
           id="tspan724">B</tspan>
      </text>
      <text
         transform="translate(29.064,65.6933)"
         id="text726"
         style="font-size:1.10029995px;text-anchor:start;fill:currentColor;font-family:sans-serif">
        <tspan
           id="tspan728">Flat</tspan>
      </text>
    </g>
  </a>
  <a
     xlink:href="textedit:///Users/paul/lilypond_stuff/clairnote-site-images/keysigs/keysigs-major.ly:21:11:12"
     transform="matrix(1.75,0,0,1.75,-9.1555495,-79.408952)"
     id="a730">
    <path
       d="m 220,138 c 56,0 109,-29 109,-91 0,-72 -56,-121 -103,-149 -36,-21 -76,-36 -117,-36 -56,0 -109,29 -109,91 0,72 56,121 103,149 36,21 76,36 117,36 z"
       transform="matrix(0.004,0,0,-0.004,29.4473,59.3604)"
       id="path732"
       style="fill:currentColor" />
  </a>
  <g
     transform="matrix(1.7284546,0.27376031,-0.27376031,1.7284546,5.4634005,-86.551128)"
     id="g734">
    <a
       xlink:href="textedit:///Users/paul/lilypond_stuff/clairnote-site-images/keysigs/keysigs-major.ly:21:11:12"
       id="a736">
      <g
         id="g738">
        <path
           d="m 220,138 c 56,0 109,-29 109,-91 0,-72 -56,-121 -103,-149 -36,-21 -76,-36 -117,-36 -56,0 -109,29 -109,91 0,72 56,121 103,149 36,21 76,36 117,36 z"
           transform="matrix(0.004,0,0,-0.004,29.4473,51.0312)"
           id="path740"
           style="fill:currentColor" />
      </g>
    </a>
  </g>
  <g
     transform="matrix(1.7284546,0.27376031,-0.27376031,1.7284546,5.5277615,-85.021111)"
     id="g742">
    <a
       xlink:href="textedit:///Users/paul/lilypond_stuff/clairnote-site-images/keysigs/keysigs-major.ly:21:7:8"
       id="a744">
      <g
         id="g746">
        <path
           d="m 220,138 c 56,0 109,-29 109,-91 0,-72 -56,-121 -103,-149 -36,-21 -76,-36 -117,-36 -56,0 -109,29 -109,91 0,72 56,121 103,149 36,21 76,36 117,36 z"
           transform="matrix(0.004,0,0,-0.004,23.9112,51.702)"
           id="path748"
           style="fill:currentColor" />
      </g>
    </a>
  </g>
  <a
     xlink:href="textedit:///Users/paul/lilypond_stuff/clairnote-site-images/keysigs/keysigs-major.ly:21:7:8"
     transform="matrix(1.75,0,0,1.75,-9.1555495,-79.408952)"
     id="a750">
    <path
       d="m 220,138 c 56,0 109,-29 109,-91 0,-72 -56,-121 -103,-149 -36,-21 -76,-36 -117,-36 -56,0 -109,29 -109,91 0,72 56,121 103,149 36,21 76,36 117,36 z"
       transform="matrix(0.004,0,0,-0.004,23.9112,59.8604)"
       id="path752"
       style="fill:currentColor" />
  </a>
  <a
     xlink:href="textedit:///Users/paul/lilypond_stuff/clairnote-site-images/keysigs/keysigs-major.ly:48:2:3"
     transform="matrix(1.75,0,0,1.75,-9.1555495,-76.196951)"
     id="a754">
    <g
       id="g756"
       style="color:#7f7f7f">
      <text
         transform="translate(24.1937,64.3569)"
         id="text758"
         style="font-size:1.10029995px;text-anchor:start;fill:currentColor;font-family:sans-serif">
        <tspan
           id="tspan760">A</tspan>
      </text>
      <text
         transform="translate(23.5279,65.6933)"
         id="text762"
         style="font-size:1.10029995px;text-anchor:start;fill:currentColor;font-family:sans-serif">
        <tspan
           id="tspan764">Flat</tspan>
      </text>
    </g>
  </a>
  <rect
     width="0.22749999"
     height="5.8362498"
     ry="0.07"
     x="34.810925"
     y="4.9447236"
     id="rect766"
     style="fill:currentColor" />
  <rect
     width="0.22749999"
     height="5.79635"
     ry="0.07"
     x="34.7649"
     y="19.221754"
     id="rect768"
     style="fill:currentColor" />
  <text
     x="36.310841"
     y="83.827034"
     id="text1010"
     style="font-size:2.20009995px;text-anchor:start;fill:currentColor;font-family:Century Schoolbook L">
    <tspan
       id="tspan1012" />
  </text>
</svg>
