<?xml version="1.0" encoding="UTF-8" standalone="no"?>
<!-- Created with Inkscape (http://www.inkscape.org/) -->

<svg
   xmlns:dc="http://purl.org/dc/elements/1.1/"
   xmlns:cc="http://creativecommons.org/ns#"
   xmlns:rdf="http://www.w3.org/1999/02/22-rdf-syntax-ns#"
   xmlns:svg="http://www.w3.org/2000/svg"
   xmlns="http://www.w3.org/2000/svg"
   xmlns:xlink="http://www.w3.org/1999/xlink"
   version="1.2"
   width="616.96326"
   height="288.02817"
   viewBox="0 0 99.084321 46.257333"
   id="svg2">
  <metadata
     id="metadata224">
    <rdf:RDF>
      <cc:Work
         rdf:about="">
        <dc:format>image/svg+xml</dc:format>
        <dc:type
           rdf:resource="http://purl.org/dc/dcmitype/StillImage" />
        <dc:title></dc:title>
      </cc:Work>
    </rdf:RDF>
  </metadata>
  <defs
     id="defs222" />
  <text
     x="13.215413"
     y="9.3731413"
     id="text4"
     style="font-size:2.20009995px;text-anchor:start;fill:currentColor;font-family:Century Schoolbook L">
    <tspan
       id="tspan6" />
  </text>
  <rect
     width="0.33249998"
     height="9.8000002"
     ry="0"
     x="97.948822"
     y="29.243999"
     id="rect8"
     style="fill:currentColor" />
  <rect
     width="0.33249998"
     height="7"
     ry="0"
     x="97.948822"
     y="6.1439986"
     id="rect10"
     style="fill:currentColor" />
  <rect
     width="3.455025"
     height="0.34999999"
     ry="0.175"
     x="41.07523"
     y="14.718999"
     id="rect12"
     style="fill:currentColor" />
  <rect
     width="3.455025"
     height="0.34999999"
     ry="0.175"
     x="41.07523"
     y="16.468998"
     id="rect14"
     style="fill:currentColor" />
  <rect
     width="3.455025"
     height="0.34999999"
     ry="0.175"
     x="84.728279"
     y="4.2189989"
     id="rect16"
     style="fill:currentColor" />
  <rect
     width="3.455025"
     height="0.34999999"
     ry="0.175"
     x="84.728279"
     y="2.4689987"
     id="rect18"
     style="fill:currentColor" />
  <line
     x1="0.99550027"
     y1="13.143999"
     x2="98.193825"
     y2="13.143999"
     id="line20"
     style="stroke:currentColor;stroke-width:0.175;stroke-linecap:round;stroke-linejoin:round" />
  <line
     x1="0.99550027"
     y1="11.393999"
     x2="98.193825"
     y2="11.393999"
     id="line22"
     style="stroke:currentColor;stroke-width:0.175;stroke-linecap:round;stroke-linejoin:round" />
  <line
     x1="0.99550027"
     y1="9.6439991"
     x2="98.193825"
     y2="9.6439991"
     id="line24"
     style="stroke:currentColor;stroke-width:0.175;stroke-linecap:round;stroke-linejoin:round" />
  <line
     x1="0.99550027"
     y1="7.8939986"
     x2="98.193825"
     y2="7.8939986"
     id="line26"
     style="stroke:currentColor;stroke-width:0.175;stroke-linecap:round;stroke-linejoin:round" />
  <line
     x1="0.99550027"
     y1="6.1439986"
     x2="98.193825"
     y2="6.1439986"
     id="line28"
     style="stroke:currentColor;stroke-width:0.175;stroke-linecap:round;stroke-linejoin:round" />
  <rect
     width="3.448025"
     height="0.29750001"
     ry="0.14875001"
     x="41.076454"
     y="41.345245"
     id="rect30"
     style="fill:currentColor" />
  <rect
     width="3.448025"
     height="0.29750001"
     ry="0.14875001"
     x="41.076454"
     y="43.795246"
     id="rect32"
     style="fill:currentColor" />
  <rect
     width="3.448025"
     height="0.29750001"
     ry="0.14875001"
     x="84.729324"
     y="24.19525"
     id="rect34"
     style="fill:currentColor" />
  <rect
     width="3.448025"
     height="0.29750001"
     ry="0.14875001"
     x="84.729324"
     y="26.645248"
     id="rect36"
     style="fill:currentColor" />
  <line
     x1="0.99550027"
     y1="29.243999"
     x2="98.193825"
     y2="29.243999"
     id="line38"
     style="stroke:currentColor;stroke-width:0.175;stroke-linecap:round;stroke-linejoin:round" />
  <line
     x1="0.99550027"
     y1="31.693998"
     x2="98.193825"
     y2="31.693998"
     id="line40"
     style="stroke:currentColor;stroke-width:0.175;stroke-linecap:round;stroke-linejoin:round" />
  <line
     x1="0.99550027"
     y1="36.593998"
     x2="98.193825"
     y2="36.593998"
     id="line42"
     style="stroke:currentColor;stroke-width:0.175;stroke-linecap:round;stroke-linejoin:round" />
  <line
     x1="0.99550027"
     y1="39.043999"
     x2="98.193825"
     y2="39.043999"
     id="line44"
     style="stroke:currentColor;stroke-width:0.175;stroke-linecap:round;stroke-linejoin:round" />
  <path
     d="m 82.919301,31.781498 c 0,-0.161 0.126,-0.287 0.287,-0.287 0.161,0 0.287,0.126 0.287,0.287 0,0.161 -0.126,0.287 -0.287,0.287 -0.161,0 -0.287,-0.126 -0.287,-0.287 z m 0,-1.4 c 0,-0.161 0.126,-0.287 0.287,-0.287 0.161,0 0.287,0.126 0.287,0.287 0,0.161 -0.126,0.287 -0.287,0.287 -0.161,0 -0.287,-0.126 -0.287,-0.287 z m -1.869,-0.791 c 0.98,0 1.687,0.483 1.687,1.407 0,1.477 -1.47,2.331 -2.877,2.947 -0.021,0.021 -0.042,0.028 -0.063,0.028 -0.049,0 -0.091,-0.042 -0.091,-0.091 0,-0.021 0.007,-0.042 0.028,-0.063 1.05,-0.686 2.149,-1.519 2.149,-2.751 0,-0.644 -0.266,-1.295 -0.833,-1.295 -0.364,0 -0.609,0.266 -0.728,0.63 0.035,-0.007 0.07,-0.014 0.105,-0.014 0.308,0 0.56,0.252 0.56,0.56 0,0.322 -0.245,0.595 -0.56,0.595 -0.336,0 -0.63,-0.266 -0.63,-0.595 0,-0.728 0.539,-1.358 1.253,-1.358 z"
     id="path46"
     style="fill:currentColor" />
  <text
     x="80.3013"
     y="40.924023"
     id="text48"
     style="font-size:2.42550015px;font-style:italic;text-anchor:start;fill:currentColor;font-family:Century Schoolbook L">
    <tspan
       id="tspan50">25</tspan>
  </text>
  <g
     transform="matrix(1.7284546,0.27376031,-0.27376031,1.7284546,-17.989529,-22.83456)"
     id="g52">
    <a
       xlink:href="textedit:///Users/paul/lilypond_stuff/clairnote-site-images/clefs/clefs-transposed/clefs-transposed.ly:24:2:3"
       id="a54">
      <g
         id="g56">
        <g
           transform="scale(0.945,1)"
           id="g58">
          <path
             d="m 315,65 c 0,24 -21,41 -42,41 -4,0 -8,0 -12,-1 C 230,96 184,65 147,41 110,17 63,-12 43,-37 36,-45 32,-55 32,-65 c 0,-24 21,-41 42,-41 4,0 8,0 12,1 31,9 78,40 115,64 37,24 84,53 104,78 7,8 10,18 10,28 z m -51,72 c 47,0 83,-21 83,-72 0,-19 -4,-37 -10,-56 -12,-38 -32,-74 -65,-96 -54,-36 -113,-51 -188,-51 -47,0 -84,22 -84,73 0,19 5,37 11,56 12,38 31,74 64,96 54,36 114,50 189,50 z"
             transform="matrix(0.004,0,0,-0.004,66.0875,16.9453)"
             id="path60"
             style="fill:currentColor" />
        </g>
      </g>
    </a>
  </g>
  <rect
     width="0.22749999"
     height="5.8362498"
     ry="0.07"
     x="70.683998"
     y="31.370249"
     id="rect62"
     style="fill:currentColor" />
  <a
     xlink:href="textedit:///Users/paul/lilypond_stuff/clairnote-site-images/clefs/clefs-transposed/clefs-transposed.ly:24:2:3"
     transform="matrix(1.75,0,0,1.75,-23.988199,-5.9227766)"
     id="a64">
    <path
       d="m 220,138 c 56,0 109,-29 109,-91 0,-72 -56,-121 -103,-149 -36,-21 -76,-36 -117,-36 -56,0 -109,29 -109,91 0,72 56,121 103,149 36,21 76,36 117,36 z"
       transform="matrix(0.004,0,0,-0.004,62.4527,4.3953)"
       id="path66"
       style="fill:currentColor" />
  </a>
  <path
     d="m 82.919301,8.5939988 c 0,-0.161 0.126,-0.287 0.287,-0.287 0.161,0 0.287,0.126 0.287,0.287 0,0.161 -0.126,0.287 -0.287,0.287 -0.161,0 -0.287,-0.126 -0.287,-0.287 z m 0,-1.4 c 0,-0.161 0.126,-0.287 0.287,-0.287 0.161,0 0.287,0.126 0.287,0.287 0,0.161 -0.126,0.287 -0.287,0.287 -0.161,0 -0.287,-0.126 -0.287,-0.287 z m -1.869,-0.791 c 0.98,0 1.687,0.483 1.687,1.407 0,1.477 -1.47,2.3310002 -2.877,2.9470002 -0.021,0.021 -0.042,0.028 -0.063,0.028 -0.049,0 -0.091,-0.042 -0.091,-0.091 0,-0.021 0.007,-0.042 0.028,-0.063 1.05,-0.6860002 2.149,-1.5190002 2.149,-2.7510002 0,-0.644 -0.266,-1.295 -0.833,-1.295 -0.364,0 -0.609,0.266 -0.728,0.63 0.035,-0.007 0.07,-0.014 0.105,-0.014 0.308,0 0.56,0.252 0.56,0.56 0,0.322 -0.245,0.595 -0.56,0.595 -0.336,0 -0.63,-0.266 -0.63,-0.595 0,-0.728 0.539,-1.358 1.253,-1.358 z"
     id="path68"
     style="fill:currentColor" />
  <text
     x="80.3013"
     y="15.322924"
     id="text70"
     style="font-size:2.42550015px;font-style:italic;text-anchor:start;fill:currentColor;font-family:Century Schoolbook L">
    <tspan
       id="tspan72">15</tspan>
  </text>
  <rect
     width="0.22749999"
     height="5.8362498"
     ry="0.07"
     x="58.342129"
     y="32.306499"
     id="rect74"
     style="fill:currentColor" />
  <a
     xlink:href="textedit:///Users/paul/lilypond_stuff/clairnote-site-images/clefs/clefs-transposed/clefs-transposed.ly:22:2:3"
     transform="matrix(1.75,0,0,1.75,-23.988199,-5.9227766)"
     id="a76">
    <path
       d="m 220,138 c 56,0 109,-29 109,-91 0,-72 -56,-121 -103,-149 -36,-21 -76,-36 -117,-36 -56,0 -109,29 -109,91 0,72 56,121 103,149 36,21 76,36 117,36 z"
       transform="matrix(0.004,0,0,-0.004,54.1378,7.8953)"
       id="path78"
       style="fill:currentColor" />
  </a>
  <path
     d="m 68.368226,8.5939988 c 0,-0.161 0.126,-0.287 0.287,-0.287 0.161,0 0.287,0.126 0.287,0.287 0,0.161 -0.126,0.287 -0.287,0.287 -0.161,0 -0.287,-0.126 -0.287,-0.287 z m 0,-1.4 c 0,-0.161 0.126,-0.287 0.287,-0.287 0.161,0 0.287,0.126 0.287,0.287 0,0.161 -0.126,0.287 -0.287,0.287 -0.161,0 -0.287,-0.126 -0.287,-0.287 z m -1.869,-0.791 c 0.98,0 1.687,0.483 1.687,1.407 0,1.477 -1.47,2.3310002 -2.877,2.9470002 -0.021,0.021 -0.042,0.028 -0.063,0.028 -0.049,0 -0.091,-0.042 -0.091,-0.091 0,-0.021 0.007,-0.042 0.028,-0.063 1.05,-0.6860002 2.149,-1.5190002 2.149,-2.7510002 0,-0.644 -0.266,-1.295 -0.833,-1.295 -0.364,0 -0.609,0.266 -0.728,0.63 0.035,-0.007 0.07,-0.014 0.105,-0.014 0.308,0 0.56,0.252 0.56,0.56 0,0.322 -0.245,0.595 -0.56,0.595 -0.336,0 -0.63,-0.266 -0.63,-0.595 0,-0.728 0.539,-1.358 1.253,-1.358 z"
     id="path80"
     style="fill:currentColor" />
  <text
     x="66.437447"
     y="15.292999"
     id="text82"
     style="font-size:2.42550015px;font-style:italic;text-anchor:start;fill:currentColor;font-family:Century Schoolbook L">
    <tspan
       id="tspan84">8</tspan>
  </text>
  <g
     transform="matrix(1.7284546,0.27376031,-0.27376031,1.7284546,-17.018884,-20.467779)"
     id="g86">
    <a
       xlink:href="textedit:///Users/paul/lilypond_stuff/clairnote-site-images/clefs/clefs-transposed/clefs-transposed.ly:22:2:3"
       id="a88">
      <g
         id="g90">
        <g
           transform="scale(0.945,1)"
           id="g92">
          <path
             d="m 315,65 c 0,24 -21,41 -42,41 -4,0 -8,0 -12,-1 C 230,96 184,65 147,41 110,17 63,-12 43,-37 36,-45 32,-55 32,-65 c 0,-24 21,-41 42,-41 4,0 8,0 12,1 31,9 78,40 115,64 37,24 84,53 104,78 7,8 10,18 10,28 z m -51,72 c 47,0 83,-21 83,-72 0,-19 -4,-37 -10,-56 -12,-38 -32,-74 -65,-96 -54,-36 -113,-51 -188,-51 -47,0 -84,22 -84,73 0,19 5,37 11,56 12,38 31,74 64,96 54,36 114,50 189,50 z"
             transform="matrix(0.004,0,0,-0.004,57.2887,21.1453)"
             id="path94"
             style="fill:currentColor" />
        </g>
      </g>
    </a>
  </g>
  <path
     d="m 68.368226,31.781498 c 0,-0.161 0.126,-0.287 0.287,-0.287 0.161,0 0.287,0.126 0.287,0.287 0,0.161 -0.126,0.287 -0.287,0.287 -0.161,0 -0.287,-0.126 -0.287,-0.287 z m 0,-1.4 c 0,-0.161 0.126,-0.287 0.287,-0.287 0.161,0 0.287,0.126 0.287,0.287 0,0.161 -0.126,0.287 -0.287,0.287 -0.161,0 -0.287,-0.126 -0.287,-0.287 z m -1.869,-0.791 c 0.98,0 1.687,0.483 1.687,1.407 0,1.477 -1.47,2.331 -2.877,2.947 -0.021,0.021 -0.042,0.028 -0.063,0.028 -0.049,0 -0.091,-0.042 -0.091,-0.091 0,-0.021 0.007,-0.042 0.028,-0.063 1.05,-0.686 2.149,-1.519 2.149,-2.751 0,-0.644 -0.266,-1.295 -0.833,-1.295 -0.364,0 -0.609,0.266 -0.728,0.63 0.035,-0.007 0.07,-0.014 0.105,-0.014 0.308,0 0.56,0.252 0.56,0.56 0,0.322 -0.245,0.595 -0.56,0.595 -0.336,0 -0.63,-0.266 -0.63,-0.595 0,-0.728 0.539,-1.358 1.253,-1.358 z"
     id="path96"
     style="fill:currentColor" />
  <text
     x="65.750397"
     y="40.864174"
     id="text98"
     style="font-size:2.42550015px;font-style:italic;text-anchor:start;fill:currentColor;font-family:Century Schoolbook L">
    <tspan
       id="tspan100">13</tspan>
  </text>
  <rect
     width="0.22749999"
     height="5.79635"
     ry="0.07"
     x="70.752953"
     y="8.2226486"
     id="rect102"
     style="fill:currentColor" />
  <path
     d="m 10.834,11.386999 c 0,0.574 -0.392,1.176 -0.9869996,1.379 0.014,0.189 0.021,0.378 0.021,0.567 0,0.112 0,0.231 -0.007,0.343 -0.042,0.693 -0.525,1.302 -1.211,1.302 -0.609,0 -1.113,-0.504 -1.113,-1.12 0,-0.322 0.294,-0.581 0.63,-0.581 0.301,0 0.532,0.266 0.532,0.581 0,0.294 -0.238,0.532 -0.532,0.532 -0.028,0 -0.042,0 -0.07,-0.007 0.133,0.182 0.329,0.294 0.567,0.294 0.525,0 0.868,-0.504 0.903,-1.043 0.007,-0.105 0.007,-0.21 0.007,-0.315 0,-0.161 -0.007,-0.322 -0.021,-0.483 -0.154,0.028 -0.308,0.042 -0.469,0.042 -1.057,0 -1.862,-0.973 -1.862,-2.114 0,-1.0080002 0.707,-1.7780002 1.337,-2.5690002 -0.112,-0.371 -0.217,-0.735 -0.259,-1.12 -0.035,-0.294 -0.035,-0.595 -0.035,-0.896 0,-0.651 0.294,-1.267 0.805,-1.673 0.021,-0.014 0.042,-0.021 0.063,-0.021 0.028,0 0.056,0.007 0.077,0.028 0.399,0.483 0.749,1.414 0.749,2.065 0,0.805 -0.441,1.449 -0.945,2.079 0.119,0.413 0.231,0.833 0.329,1.253 h 0.007 c 0.014,0 0.028,-0.007 0.042,-0.007 0.8819996,0 1.4419996,0.7350002 1.4419996,1.4840002 z m -1.0149996,1.092 c 0.3499996,-0.14 0.5669996,-0.525 0.5669996,-0.875 0,-0.476 -0.336,-0.952 -0.8889996,-1.029 0.133,0.623 0.245,1.246 0.322,1.904 z m -2.17,-1.218 c 0,0.728 0.714,1.316 1.456,1.316 0.147,0 0.28,-0.007 0.42,-0.028 -0.077,-0.686 -0.196,-1.337 -0.336,-1.981 -0.413,0.049 -0.651,0.336 -0.651,0.644 0,0.238 0.147,0.49 0.448,0.665 0.035,0.035 0.042,0.07 0.042,0.105 0,0.077 -0.063,0.154 -0.147,0.154 -0.021,0 -0.042,-0.007 -0.063,-0.014 -0.455,-0.245 -0.665,-0.651 -0.665,-1.05 0,-0.497 0.322,-0.987 0.896,-1.1270002 -0.077,-0.336 -0.168,-0.665 -0.266,-1.001 -0.574,0.707 -1.134,1.4140002 -1.134,2.3170002 z m 1.792,-5.8870002 c -0.532,0.308 -0.861,0.868 -0.861,1.477 0,0.392 0.105,0.728 0.203,1.057 0.413,-0.553 0.749,-1.134 0.749,-1.827 0,-0.301 -0.014,-0.427 -0.091,-0.707 z"
     id="path104"
     style="fill:currentColor" />
  <rect
     width="0.22749999"
     height="7.54635"
     ry="0.07"
     x="85.304024"
     y="2.0976484"
     id="rect106"
     style="fill:currentColor" />
  <rect
     width="0.22749999"
     height="5.8362498"
     ry="0.07"
     x="85.235077"
     y="24.020248"
     id="rect108"
     style="fill:currentColor" />
  <a
     xlink:href="textedit:///Users/paul/lilypond_stuff/clairnote-site-images/clefs/clefs-transposed/clefs-transposed.ly:16:2:3"
     transform="matrix(1.75,0,0,1.75,-23.988199,-5.9227766)"
     id="a110">
    <path
       d="m 220,138 c 56,0 109,-29 109,-91 0,-72 -56,-121 -103,-149 -36,-21 -76,-36 -117,-36 -56,0 -109,29 -109,91 0,72 56,121 103,149 36,21 76,36 117,36 z"
       transform="matrix(0.004,0,0,-0.004,29.1933,9.8953)"
       id="path112"
       style="fill:currentColor" />
  </a>
  <path
     d="m 25.384901,11.386999 c 0,0.574 -0.392,1.176 -0.987,1.379 0.014,0.189 0.021,0.378 0.021,0.567 0,0.112 0,0.231 -0.007,0.343 -0.042,0.693 -0.525,1.302 -1.211,1.302 -0.609,0 -1.113,-0.504 -1.113,-1.12 0,-0.322 0.294,-0.581 0.63,-0.581 0.301,0 0.532,0.266 0.532,0.581 0,0.294 -0.238,0.532 -0.532,0.532 -0.028,0 -0.042,0 -0.07,-0.007 0.133,0.182 0.329,0.294 0.567,0.294 0.525,0 0.868,-0.504 0.903,-1.043 0.007,-0.105 0.007,-0.21 0.007,-0.315 0,-0.161 -0.007,-0.322 -0.021,-0.483 -0.154,0.028 -0.308,0.042 -0.469,0.042 -1.057,0 -1.862,-0.973 -1.862,-2.114 0,-1.0080002 0.707,-1.7780002 1.337,-2.5690002 -0.112,-0.371 -0.217,-0.735 -0.259,-1.12 -0.035,-0.294 -0.035,-0.595 -0.035,-0.896 0,-0.651 0.294,-1.267 0.805,-1.673 0.021,-0.014 0.042,-0.021 0.063,-0.021 0.028,0 0.056,0.007 0.077,0.028 0.399,0.483 0.749,1.414 0.749,2.065 0,0.805 -0.441,1.449 -0.945,2.079 0.119,0.413 0.231,0.833 0.329,1.253 h 0.007 c 0.014,0 0.028,-0.007 0.042,-0.007 0.882,0 1.442,0.7350002 1.442,1.4840002 z m -1.015,1.092 c 0.35,-0.14 0.567,-0.525 0.567,-0.875 0,-0.476 -0.336,-0.952 -0.889,-1.029 0.133,0.623 0.245,1.246 0.322,1.904 z m -2.17,-1.218 c 0,0.728 0.714,1.316 1.456,1.316 0.147,0 0.28,-0.007 0.42,-0.028 -0.077,-0.686 -0.196,-1.337 -0.336,-1.981 -0.413,0.049 -0.651,0.336 -0.651,0.644 0,0.238 0.147,0.49 0.448,0.665 0.035,0.035 0.042,0.07 0.042,0.105 0,0.077 -0.063,0.154 -0.147,0.154 -0.021,0 -0.042,-0.007 -0.063,-0.014 -0.455,-0.245 -0.665,-0.651 -0.665,-1.05 0,-0.497 0.322,-0.987 0.896,-1.1270002 -0.077,-0.336 -0.168,-0.665 -0.266,-1.001 -0.574,0.707 -1.134,1.4140002 -1.134,2.3170002 z m 1.792,-5.8870002 c -0.532,0.308 -0.861,0.868 -0.861,1.477 0,0.392 0.105,0.728 0.203,1.057 0.413,-0.553 0.749,-1.134 0.749,-1.827 0,-0.301 -0.014,-0.427 -0.091,-0.707 z"
     id="path114"
     style="fill:currentColor" />
  <text
     x="22.867352"
     y="4.425149"
     id="text116"
     style="font-size:2.42550015px;font-style:italic;text-anchor:start;fill:currentColor;font-family:Century Schoolbook L">
    <tspan
       id="tspan118">8</tspan>
  </text>
  <g
     transform="matrix(1.7284546,0.27376031,-0.27376031,1.7284546,-16.598164,-13.563529)"
     id="g120">
    <a
       xlink:href="textedit:///Users/paul/lilypond_stuff/clairnote-site-images/clefs/clefs-transposed/clefs-transposed.ly:16:2:3"
       id="a122">
      <g
         id="g124">
        <g
           transform="scale(0.945,1)"
           id="g126">
          <path
             d="m 315,65 c 0,24 -21,41 -42,41 -4,0 -8,0 -12,-1 C 230,96 184,65 147,41 110,17 63,-12 43,-37 36,-45 32,-55 32,-65 c 0,-24 21,-41 42,-41 4,0 8,0 12,1 31,9 78,40 115,64 37,24 84,53 104,78 7,8 10,18 10,28 z m -51,72 c 47,0 83,-21 83,-72 0,-19 -4,-37 -10,-56 -12,-38 -32,-74 -65,-96 -54,-36 -113,-51 -188,-51 -47,0 -84,22 -84,73 0,19 5,37 11,56 12,38 31,74 64,96 54,36 114,50 189,50 z"
             transform="matrix(0.004,0,0,-0.004,30.8923,24.6453)"
             id="path128"
             style="fill:currentColor" />
        </g>
      </g>
    </a>
  </g>
  <path
     d="m 25.384901,37.199498 c 0,0.574 -0.392,1.176 -0.987,1.379 0.014,0.189 0.021,0.378 0.021,0.567 0,0.112 0,0.231 -0.007,0.343 -0.042,0.693 -0.525,1.302 -1.211,1.302 -0.609,0 -1.113,-0.504 -1.113,-1.12 0,-0.322 0.294,-0.581 0.63,-0.581 0.301,0 0.532,0.266 0.532,0.581 0,0.294 -0.238,0.532 -0.532,0.532 -0.028,0 -0.042,0 -0.07,-0.007 0.133,0.182 0.329,0.294 0.567,0.294 0.525,0 0.868,-0.504 0.903,-1.043 0.007,-0.105 0.007,-0.21 0.007,-0.315 0,-0.161 -0.007,-0.322 -0.021,-0.483 -0.154,0.028 -0.308,0.042 -0.469,0.042 -1.057,0 -1.862,-0.973 -1.862,-2.114 0,-1.008 0.707,-1.778 1.337,-2.569 -0.112,-0.371 -0.217,-0.735 -0.259,-1.12 -0.035,-0.294 -0.035,-0.595 -0.035,-0.896 0,-0.651 0.294,-1.267 0.805,-1.673 0.021,-0.014 0.042,-0.021 0.063,-0.021 0.028,0 0.056,0.007 0.077,0.028 0.399,0.483 0.749,1.414 0.749,2.065 0,0.805 -0.441,1.449 -0.945,2.079 0.119,0.413 0.231,0.833 0.329,1.253 h 0.007 c 0.014,0 0.028,-0.007 0.042,-0.007 0.882,0 1.442,0.735 1.442,1.484 z m -1.015,1.092 c 0.35,-0.14 0.567,-0.525 0.567,-0.875 0,-0.476 -0.336,-0.952 -0.889,-1.029 0.133,0.623 0.245,1.246 0.322,1.904 z m -2.17,-1.218 c 0,0.728 0.714,1.316 1.456,1.316 0.147,0 0.28,-0.007 0.42,-0.028 -0.077,-0.686 -0.196,-1.337 -0.336,-1.981 -0.413,0.049 -0.651,0.336 -0.651,0.644 0,0.238 0.147,0.49 0.448,0.665 0.035,0.035 0.042,0.07 0.042,0.105 0,0.077 -0.063,0.154 -0.147,0.154 -0.021,0 -0.042,-0.007 -0.063,-0.014 -0.455,-0.245 -0.665,-0.651 -0.665,-1.05 0,-0.497 0.322,-0.987 0.896,-1.127 -0.077,-0.336 -0.168,-0.665 -0.266,-1.001 -0.574,0.707 -1.134,1.414 -1.134,2.317 z m 1.792,-5.887 c -0.532,0.308 -0.861,0.868 -0.861,1.477 0,0.392 0.105,0.728 0.203,1.057 0.413,-0.553 0.749,-1.134 0.749,-1.827 0,-0.301 -0.014,-0.427 -0.091,-0.707 z"
     id="path130"
     style="fill:currentColor" />
  <text
     x="22.1803"
     y="29.096649"
     id="text132"
     style="font-size:2.42550015px;font-style:italic;text-anchor:start;fill:currentColor;font-family:Century Schoolbook L">
    <tspan
       id="tspan134">13</tspan>
  </text>
  <rect
     width="0.22749999"
     height="5.79635"
     ry="0.07"
     x="29.175751"
     y="5.2689986"
     id="rect136"
     style="fill:currentColor" />
  <rect
     width="0.22749999"
     height="5.8362498"
     ry="0.07"
     x="29.24015"
     y="31.081499"
     id="rect138"
     style="fill:currentColor" />
  <rect
     width="0.28"
     height="33.075001"
     ry="0.087499999"
     x="0.80300015"
     y="6.056499"
     id="rect140"
     style="fill:currentColor" />
  <a
     xlink:href="textedit:///Users/paul/lilypond_stuff/clairnote-site-images/clefs/clefs-transposed/clefs-transposed.ly:14:2:3"
     transform="matrix(1.75,0,0,1.75,-23.988199,-5.9227766)"
     id="a142">
    <path
       d="m 220,138 c 56,0 109,-29 109,-91 0,-72 -56,-121 -103,-149 -36,-21 -76,-36 -117,-36 -56,0 -109,29 -109,91 0,72 56,121 103,149 36,21 76,36 117,36 z"
       transform="matrix(0.004,0,0,-0.004,20.8784,6.3953)"
       id="path144"
       style="fill:currentColor" />
  </a>
  <g
     transform="matrix(1.7284546,0.27376031,-0.27376031,1.7284546,-17.927103,-11.377757)"
     id="g146">
    <a
       xlink:href="textedit:///Users/paul/lilypond_stuff/clairnote-site-images/clefs/clefs-transposed/clefs-transposed.ly:14:2:3"
       id="a148">
      <g
         id="g150">
        <g
           transform="scale(0.945,1)"
           id="g152">
          <path
             d="m 315,65 c 0,24 -21,41 -42,41 -4,0 -8,0 -12,-1 C 230,96 184,65 147,41 110,17 63,-12 43,-37 36,-45 32,-55 32,-65 c 0,-24 21,-41 42,-41 4,0 8,0 12,1 31,9 78,40 115,64 37,24 84,53 104,78 7,8 10,18 10,28 z m -51,72 c 47,0 83,-21 83,-72 0,-19 -4,-37 -10,-56 -12,-38 -32,-74 -65,-96 -54,-36 -113,-51 -188,-51 -47,0 -84,22 -84,73 0,19 5,37 11,56 12,38 31,74 64,96 54,36 114,50 189,50 z"
             transform="matrix(0.004,0,0,-0.004,22.0935,20.4453)"
             id="path154"
             style="fill:currentColor" />
        </g>
      </g>
    </a>
  </g>
  <path
     d="m 10.834,37.199498 c 0,0.574 -0.392,1.176 -0.9869996,1.379 0.014,0.189 0.021,0.378 0.021,0.567 0,0.112 0,0.231 -0.007,0.343 -0.042,0.693 -0.525,1.302 -1.211,1.302 -0.609,0 -1.113,-0.504 -1.113,-1.12 0,-0.322 0.294,-0.581 0.63,-0.581 0.301,0 0.532,0.266 0.532,0.581 0,0.294 -0.238,0.532 -0.532,0.532 -0.028,0 -0.042,0 -0.07,-0.007 0.133,0.182 0.329,0.294 0.567,0.294 0.525,0 0.868,-0.504 0.903,-1.043 0.007,-0.105 0.007,-0.21 0.007,-0.315 0,-0.161 -0.007,-0.322 -0.021,-0.483 -0.154,0.028 -0.308,0.042 -0.469,0.042 -1.057,0 -1.862,-0.973 -1.862,-2.114 0,-1.008 0.707,-1.778 1.337,-2.569 -0.112,-0.371 -0.217,-0.735 -0.259,-1.12 -0.035,-0.294 -0.035,-0.595 -0.035,-0.896 0,-0.651 0.294,-1.267 0.805,-1.673 0.021,-0.014 0.042,-0.021 0.063,-0.021 0.028,0 0.056,0.007 0.077,0.028 0.399,0.483 0.749,1.414 0.749,2.065 0,0.805 -0.441,1.449 -0.945,2.079 0.119,0.413 0.231,0.833 0.329,1.253 h 0.007 c 0.014,0 0.028,-0.007 0.042,-0.007 0.8819996,0 1.4419996,0.735 1.4419996,1.484 z m -1.0149996,1.092 c 0.3499996,-0.14 0.5669996,-0.525 0.5669996,-0.875 0,-0.476 -0.336,-0.952 -0.8889996,-1.029 0.133,0.623 0.245,1.246 0.322,1.904 z m -2.17,-1.218 c 0,0.728 0.714,1.316 1.456,1.316 0.147,0 0.28,-0.007 0.42,-0.028 -0.077,-0.686 -0.196,-1.337 -0.336,-1.981 -0.413,0.049 -0.651,0.336 -0.651,0.644 0,0.238 0.147,0.49 0.448,0.665 0.035,0.035 0.042,0.07 0.042,0.105 0,0.077 -0.063,0.154 -0.147,0.154 -0.021,0 -0.042,-0.007 -0.063,-0.014 -0.455,-0.245 -0.665,-0.651 -0.665,-1.05 0,-0.497 0.322,-0.987 0.896,-1.127 -0.077,-0.336 -0.168,-0.665 -0.266,-1.001 -0.574,0.707 -1.134,1.414 -1.134,2.317 z m 1.792,-5.887 c -0.532,0.308 -0.861,0.868 -0.861,1.477 0,0.392 0.105,0.728 0.203,1.057 0.413,-0.553 0.749,-1.134 0.749,-1.827 0,-0.301 -0.014,-0.427 -0.091,-0.707 z"
     id="path156"
     style="fill:currentColor" />
  <rect
     width="0.22749999"
     height="5.79635"
     ry="0.07"
     x="12.549001"
     y="5.5976486"
     id="rect158"
     style="fill:currentColor" />
  <rect
     width="0.22749999"
     height="5.8362498"
     ry="0.07"
     x="12.48005"
     y="30.145248"
     id="rect160"
     style="fill:currentColor" />
  <rect
     width="0.22749999"
     height="7.54635"
     ry="0.07"
     x="43.726826"
     y="9.6439991"
     id="rect162"
     style="fill:currentColor" />
  <rect
     width="0.22749999"
     height="5.8362498"
     ry="0.07"
     x="43.791225"
     y="38.431499"
     id="rect164"
     style="fill:currentColor" />
  <a
     xlink:href="textedit:///Users/paul/lilypond_stuff/clairnote-site-images/clefs/clefs-transposed/clefs-transposed.ly:20:2:3"
     transform="matrix(1.75,0,0,1.75,-23.988199,-5.9227766)"
     id="a166">
    <path
       d="m 220,138 c 56,0 109,-29 109,-91 0,-72 -56,-121 -103,-149 -36,-21 -76,-36 -117,-36 -56,0 -109,29 -109,91 0,72 56,121 103,149 36,21 76,36 117,36 z"
       transform="matrix(0.004,0,0,-0.004,45.823,11.3953)"
       id="path168"
       style="fill:currentColor" />
  </a>
  <path
     d="m 53.817326,8.5939988 c 0,-0.161 0.126,-0.287 0.287,-0.287 0.161,0 0.287,0.126 0.287,0.287 0,0.161 -0.126,0.287 -0.287,0.287 -0.161,0 -0.287,-0.126 -0.287,-0.287 z m 0,-1.4 c 0,-0.161 0.126,-0.287 0.287,-0.287 0.161,0 0.287,0.126 0.287,0.287 0,0.161 -0.126,0.287 -0.287,0.287 -0.161,0 -0.287,-0.126 -0.287,-0.287 z m -1.869,-0.791 c 0.98,0 1.687,0.483 1.687,1.407 0,1.477 -1.47,2.3310002 -2.877,2.9470002 -0.021,0.021 -0.042,0.028 -0.063,0.028 -0.049,0 -0.091,-0.042 -0.091,-0.091 0,-0.021 0.007,-0.042 0.028,-0.063 1.05,-0.6860002 2.149,-1.5190002 2.149,-2.7510002 0,-0.644 -0.266,-1.295 -0.833,-1.295 -0.364,0 -0.609,0.266 -0.728,0.63 0.035,-0.007 0.07,-0.014 0.105,-0.014 0.308,0 0.56,0.252 0.56,0.56 0,0.322 -0.245,0.595 -0.56,0.595 -0.336,0 -0.63,-0.266 -0.63,-0.595 0,-0.728 0.539,-1.358 1.253,-1.358 z"
     id="path170"
     style="fill:currentColor" />
  <g
     transform="matrix(1.7284546,0.27376031,-0.27376031,1.7284546,-16.048238,-18.100999)"
     id="g172">
    <a
       xlink:href="textedit:///Users/paul/lilypond_stuff/clairnote-site-images/clefs/clefs-transposed/clefs-transposed.ly:20:2:3"
       id="a174">
      <g
         id="g176">
        <g
           transform="scale(0.945,1)"
           id="g178">
          <path
             d="m 315,65 c 0,24 -21,41 -42,41 -4,0 -8,0 -12,-1 C 230,96 184,65 147,41 110,17 63,-12 43,-37 36,-45 32,-55 32,-65 c 0,-24 21,-41 42,-41 4,0 8,0 12,1 31,9 78,40 115,64 37,24 84,53 104,78 7,8 10,18 10,28 z m -51,72 c 47,0 83,-21 83,-72 0,-19 -4,-37 -10,-56 -12,-38 -32,-74 -65,-96 -54,-36 -113,-51 -188,-51 -47,0 -84,22 -84,73 0,19 5,37 11,56 12,38 31,74 64,96 54,36 114,50 189,50 z"
             transform="matrix(0.004,0,0,-0.004,48.4899,25.3453)"
             id="path180"
             style="fill:currentColor" />
        </g>
      </g>
    </a>
  </g>
  <path
     d="m 53.817326,31.781498 c 0,-0.161 0.126,-0.287 0.287,-0.287 0.161,0 0.287,0.126 0.287,0.287 0,0.161 -0.126,0.287 -0.287,0.287 -0.161,0 -0.287,-0.126 -0.287,-0.287 z m 0,-1.4 c 0,-0.161 0.126,-0.287 0.287,-0.287 0.161,0 0.287,0.126 0.287,0.287 0,0.161 -0.126,0.287 -0.287,0.287 -0.161,0 -0.287,-0.126 -0.287,-0.287 z m -1.869,-0.791 c 0.98,0 1.687,0.483 1.687,1.407 0,1.477 -1.47,2.331 -2.877,2.947 -0.021,0.021 -0.042,0.028 -0.063,0.028 -0.049,0 -0.091,-0.042 -0.091,-0.091 0,-0.021 0.007,-0.042 0.028,-0.063 1.05,-0.686 2.149,-1.519 2.149,-2.751 0,-0.644 -0.266,-1.295 -0.833,-1.295 -0.364,0 -0.609,0.266 -0.728,0.63 0.035,-0.007 0.07,-0.014 0.105,-0.014 0.308,0 0.56,0.252 0.56,0.56 0,0.322 -0.245,0.595 -0.56,0.595 -0.336,0 -0.63,-0.266 -0.63,-0.595 0,-0.728 0.539,-1.358 1.253,-1.358 z"
     id="path182"
     style="fill:currentColor" />
  <rect
     width="0.22749999"
     height="5.79635"
     ry="0.07"
     x="58.277725"
     y="7.8939986"
     id="rect184"
     style="fill:currentColor" />
  <a
     xlink:href="textedit:///Users/paul/lilypond_stuff/clairnote-site-images/clefs/clefs-transposed/clefs-transposed.ly:18:2:3"
     transform="matrix(1.75,0,0,1.75,-23.988199,-5.9227766)"
     id="a186">
    <path
       d="m 220,138 c 56,0 109,-29 109,-91 0,-72 -56,-121 -103,-149 -36,-21 -76,-36 -117,-36 -56,0 -109,29 -109,91 0,72 56,121 103,149 36,21 76,36 117,36 z"
       transform="matrix(0.004,0,0,-0.004,37.5081,13.3953)"
       id="path188"
       style="fill:currentColor" />
  </a>
  <text
     x="36.731201"
     y="29.096649"
     id="text190"
     style="font-size:2.42550015px;font-style:italic;text-anchor:start;fill:currentColor;font-family:Century Schoolbook L">
    <tspan
       id="tspan192">25</tspan>
  </text>
  <path
     d="m 39.935976,37.199498 c 0,0.574 -0.392,1.176 -0.987,1.379 0.014,0.189 0.021,0.378 0.021,0.567 0,0.112 0,0.231 -0.007,0.343 -0.042,0.693 -0.525,1.302 -1.211,1.302 -0.609,0 -1.113,-0.504 -1.113,-1.12 0,-0.322 0.294,-0.581 0.63,-0.581 0.301,0 0.532,0.266 0.532,0.581 0,0.294 -0.238,0.532 -0.532,0.532 -0.028,0 -0.042,0 -0.07,-0.007 0.133,0.182 0.329,0.294 0.567,0.294 0.525,0 0.868,-0.504 0.903,-1.043 0.007,-0.105 0.007,-0.21 0.007,-0.315 0,-0.161 -0.007,-0.322 -0.021,-0.483 -0.154,0.028 -0.308,0.042 -0.469,0.042 -1.057,0 -1.862,-0.973 -1.862,-2.114 0,-1.008 0.707,-1.778 1.337,-2.569 -0.112,-0.371 -0.217,-0.735 -0.259,-1.12 -0.035,-0.294 -0.035,-0.595 -0.035,-0.896 0,-0.651 0.294,-1.267 0.805,-1.673 0.021,-0.014 0.042,-0.021 0.063,-0.021 0.028,0 0.056,0.007 0.077,0.028 0.399,0.483 0.749,1.414 0.749,2.065 0,0.805 -0.441,1.449 -0.945,2.079 0.119,0.413 0.231,0.833 0.329,1.253 h 0.007 c 0.014,0 0.028,-0.007 0.042,-0.007 0.882,0 1.442,0.735 1.442,1.484 z m -1.015,1.092 c 0.35,-0.14 0.567,-0.525 0.567,-0.875 0,-0.476 -0.336,-0.952 -0.889,-1.029 0.133,0.623 0.245,1.246 0.322,1.904 z m -2.17,-1.218 c 0,0.728 0.714,1.316 1.456,1.316 0.147,0 0.28,-0.007 0.42,-0.028 -0.077,-0.686 -0.196,-1.337 -0.336,-1.981 -0.413,0.049 -0.651,0.336 -0.651,0.644 0,0.238 0.147,0.49 0.448,0.665 0.035,0.035 0.042,0.07 0.042,0.105 0,0.077 -0.063,0.154 -0.147,0.154 -0.021,0 -0.042,-0.007 -0.063,-0.014 -0.455,-0.245 -0.665,-0.651 -0.665,-1.05 0,-0.497 0.322,-0.987 0.896,-1.127 -0.077,-0.336 -0.168,-0.665 -0.266,-1.001 -0.574,0.707 -1.134,1.414 -1.134,2.317 z m 1.792,-5.887 c -0.532,0.308 -0.861,0.868 -0.861,1.477 0,0.392 0.105,0.728 0.203,1.057 0.413,-0.553 0.749,-1.134 0.749,-1.827 0,-0.301 -0.014,-0.427 -0.091,-0.707 z"
     id="path194"
     style="fill:currentColor" />
  <g
     transform="matrix(1.7284546,0.27376031,-0.27376031,1.7284546,-15.269223,-15.749328)"
     id="g196">
    <a
       xlink:href="textedit:///Users/paul/lilypond_stuff/clairnote-site-images/clefs/clefs-transposed/clefs-transposed.ly:18:2:3"
       id="a198">
      <g
         id="g200">
        <g
           transform="scale(0.945,1)"
           id="g202">
          <path
             d="m 315,65 c 0,24 -21,41 -42,41 -4,0 -8,0 -12,-1 C 230,96 184,65 147,41 110,17 63,-12 43,-37 36,-45 32,-55 32,-65 c 0,-24 21,-41 42,-41 4,0 8,0 12,1 31,9 78,40 115,64 37,24 84,53 104,78 7,8 10,18 10,28 z m -51,72 c 47,0 83,-21 83,-72 0,-19 -4,-37 -10,-56 -12,-38 -32,-74 -65,-96 -54,-36 -113,-51 -188,-51 -47,0 -84,22 -84,73 0,19 5,37 11,56 12,38 31,74 64,96 54,36 114,50 189,50 z"
             transform="matrix(0.004,0,0,-0.004,39.6911,28.8453)"
             id="path204"
             style="fill:currentColor" />
        </g>
      </g>
    </a>
  </g>
  <path
     d="m 39.935976,11.386999 c 0,0.574 -0.392,1.176 -0.987,1.379 0.014,0.189 0.021,0.378 0.021,0.567 0,0.112 0,0.231 -0.007,0.343 -0.042,0.693 -0.525,1.302 -1.211,1.302 -0.609,0 -1.113,-0.504 -1.113,-1.12 0,-0.322 0.294,-0.581 0.63,-0.581 0.301,0 0.532,0.266 0.532,0.581 0,0.294 -0.238,0.532 -0.532,0.532 -0.028,0 -0.042,0 -0.07,-0.007 0.133,0.182 0.329,0.294 0.567,0.294 0.525,0 0.868,-0.504 0.903,-1.043 0.007,-0.105 0.007,-0.21 0.007,-0.315 0,-0.161 -0.007,-0.322 -0.021,-0.483 -0.154,0.028 -0.308,0.042 -0.469,0.042 -1.057,0 -1.862,-0.973 -1.862,-2.114 0,-1.0080002 0.707,-1.7780002 1.337,-2.5690002 -0.112,-0.371 -0.217,-0.735 -0.259,-1.12 -0.035,-0.294 -0.035,-0.595 -0.035,-0.896 0,-0.651 0.294,-1.267 0.805,-1.673 0.021,-0.014 0.042,-0.021 0.063,-0.021 0.028,0 0.056,0.007 0.077,0.028 0.399,0.483 0.749,1.414 0.749,2.065 0,0.805 -0.441,1.449 -0.945,2.079 0.119,0.413 0.231,0.833 0.329,1.253 h 0.007 c 0.014,0 0.028,-0.007 0.042,-0.007 0.882,0 1.442,0.7350002 1.442,1.4840002 z m -1.015,1.092 c 0.35,-0.14 0.567,-0.525 0.567,-0.875 0,-0.476 -0.336,-0.952 -0.889,-1.029 0.133,0.623 0.245,1.246 0.322,1.904 z m -2.17,-1.218 c 0,0.728 0.714,1.316 1.456,1.316 0.147,0 0.28,-0.007 0.42,-0.028 -0.077,-0.686 -0.196,-1.337 -0.336,-1.981 -0.413,0.049 -0.651,0.336 -0.651,0.644 0,0.238 0.147,0.49 0.448,0.665 0.035,0.035 0.042,0.07 0.042,0.105 0,0.077 -0.063,0.154 -0.147,0.154 -0.021,0 -0.042,-0.007 -0.063,-0.014 -0.455,-0.245 -0.665,-0.651 -0.665,-1.05 0,-0.497 0.322,-0.987 0.896,-1.1270002 -0.077,-0.336 -0.168,-0.665 -0.266,-1.001 -0.574,0.707 -1.134,1.4140002 -1.134,2.3170002 z m 1.792,-5.8870002 c -0.532,0.308 -0.861,0.868 -0.861,1.477 0,0.392 0.105,0.728 0.203,1.057 0.413,-0.553 0.749,-1.134 0.749,-1.827 0,-0.301 -0.014,-0.427 -0.091,-0.707 z"
     id="path206"
     style="fill:currentColor" />
  <text
     x="36.731201"
     y="4.425149"
     id="text208"
     style="font-size:2.42550015px;font-style:italic;text-anchor:start;fill:currentColor;font-family:Century Schoolbook L">
    <tspan
       id="tspan210">15</tspan>
  </text>
</svg>
