<svg xmlns="http://www.w3.org/2000/svg" xmlns:xlink="http://www.w3.org/1999/xlink" version="1.2" width="167.38mm" height="46.73mm" viewBox="0 0 56.0288 15.6427">
<!-- Page: 1/1 -->
<text transform="translate(0.3347, 0.3347)" font-family="serif" font-size="2.2000" text-anchor="start" fill="currentColor">
<tspan/>
</text>
<line transform="translate(0.3347, 4.2212)" stroke-linejoin="round" stroke-linecap="round" stroke-width="0.0729" stroke="currentColor" x1="0.0365" y1="-0.0000" x2="55.3958" y2="-0.0000"/>
<line transform="translate(0.3347, 5.7212)" stroke-linejoin="round" stroke-linecap="round" stroke-width="0.0729" stroke="currentColor" x1="0.0365" y1="-0.0000" x2="55.3958" y2="-0.0000"/>
<line transform="translate(0.3347, 8.7212)" stroke-linejoin="round" stroke-linecap="round" stroke-width="0.0729" stroke="currentColor" x1="0.0365" y1="-0.0000" x2="55.3958" y2="-0.0000"/>
<line transform="translate(0.3347, 10.2212)" stroke-linejoin="round" stroke-linecap="round" stroke-width="0.0729" stroke="currentColor" x1="0.0365" y1="-0.0000" x2="55.3958" y2="-0.0000"/>
<rect transform="translate(0.3347, 1.2212)" x="51.1005" y="-0.0740" width="2.5313" height="0.1479" ry="0.0740" fill="currentColor"/>
<rect transform="translate(0.3347, 2.7212)" x="51.1005" y="-0.0740" width="2.5313" height="0.1479" ry="0.0740" fill="currentColor"/>
<rect transform="translate(0.3347, 1.2212)" x="47.0005" y="-0.0740" width="2.5313" height="0.1479" ry="0.0740" fill="currentColor"/>
<rect transform="translate(0.3347, 2.7212)" x="47.0005" y="-0.0740" width="2.5313" height="0.1479" ry="0.0740" fill="currentColor"/>
<rect transform="translate(0.3347, 1.2212)" x="42.9005" y="-0.0740" width="2.5313" height="0.1479" ry="0.0740" fill="currentColor"/>
<rect transform="translate(0.3347, 2.7212)" x="42.9005" y="-0.0740" width="2.5313" height="0.1479" ry="0.0740" fill="currentColor"/>
<rect transform="translate(0.3347, 1.2212)" x="38.8005" y="-0.0740" width="2.5313" height="0.1479" ry="0.0740" fill="currentColor"/>
<rect transform="translate(0.3347, 1.9712)" x="38.8005" y="-0.0740" width="2.5313" height="0.1479" ry="0.0740" fill="currentColor"/>
<rect transform="translate(0.3347, 2.7212)" x="38.8005" y="-0.0740" width="2.5313" height="0.1479" ry="0.0740" fill="currentColor"/>
<rect transform="translate(0.3347, 2.7212)" x="34.7005" y="-0.0740" width="2.5313" height="0.1479" ry="0.0740" fill="currentColor"/>
<rect transform="translate(0.3347, 2.7212)" x="30.6005" y="-0.0740" width="2.5313" height="0.1479" ry="0.0740" fill="currentColor"/>
<rect transform="translate(0.3347, 2.7212)" x="26.5005" y="-0.0740" width="2.5313" height="0.1479" ry="0.0740" fill="currentColor"/>
<rect transform="translate(0.3347, 2.7212)" x="22.4005" y="-0.0740" width="2.5313" height="0.1479" ry="0.0740" fill="currentColor"/>
<rect transform="translate(0.3347, 3.4712)" x="22.4005" y="-0.0740" width="2.5313" height="0.1479" ry="0.0740" fill="currentColor"/>
<rect transform="translate(0.3347, 4.9712)" x="6.0005" y="-0.0740" width="2.5313" height="0.1479" ry="0.0740" fill="currentColor"/>
<g color="rgb(50.0000%, 50.0000%, 50.0000%)">
<text transform="translate(43.5702, 13.2212)" font-family="sans-serif" font-size="1.2347" text-anchor="start" fill="currentColor">
<tspan>
D</tspan>
</text>
<path transform="translate(44.8142, 12.6712) scale(0.0022, -0.0022)" d="M216 -312c0 -10 -8 -19 -18 -19s-19 9 -19 19v145l-83 -31v-158c0 -10 -9 -19 -19 -19s-18 9 -18 19v145l-32 -12c-2 -1 -5 -1 -7 -1c-11 0 -20 9 -20 20v60c0 8 5 16 13 19l46 16v160l-32 -11c-2 -1 -5 -1 -7 -1c-11 0 -20 9 -20 20v60c0 8 5 15 13 18l46 17v158
c0 10 8 19 18 19s19 -9 19 -19v-145l83 31v158c0 10 9 19 19 19s18 -9 18 -19v-145l32 12c2 1 5 1 7 1c11 0 20 -9 20 -20v-60c0 -8 -5 -16 -13 -19l-46 -16v-160l32 11c2 1 5 1 7 1c11 0 20 -9 20 -20v-60c0 -8 -5 -15 -13 -18l-46 -17v-158zM96 65v-160l83 30v160z" fill="currentColor"/>
<text transform="translate(43.6847, 15.2212)" font-family="sans-serif" font-size="1.2347" text-anchor="start" fill="currentColor">
<tspan>
E</tspan>
</text>
<path transform="translate(44.8680, 14.9712) scale(0.0022, -0.0022)" d="M27 41l-1 -66v-11c0 -22 1 -44 4 -66c45 38 93 80 93 139c0 33 -14 67 -43 67c-31 0 -52 -30 -53 -63zM-15 -138l-12 595c8 5 18 8 27 8s19 -3 27 -8l-7 -345c25 21 58 34 91 34c52 0 89 -48 89 -102c0 -80 -86 -117 -147 -169c-15 -13 -24 -38 -45 -38
c-13 0 -23 11 -23 25z" fill="currentColor"/>
</g>
<g transform="scale(1.0000, 1.0000)">
<path transform="translate(43.8347, 1.5962)" stroke-width="0.0001" stroke-linejoin="round" stroke-linecap="round" stroke="currentColor" fill="currentColor" d="M1.0162 -0.5005C1.1901 -0.4580 1.3000 -0.3601 1.3267 -0.2237C1.3473 -0.1188 1.3091 0.0324 1.2347 0.1410C1.1037 0.3322 0.8787 0.4644 0.6176 0.5036C0.5244 0.5176 0.3659 0.5121 0.2884 0.4921C-0.0297 0.4098 -0.0964 0.0918 0.1475 -0.1799C0.2984 -0.3479 0.5439 -0.4756 0.7758 -0.5066C0.8400 -0.5151 0.9696 -0.5119 1.0162 -0.5005z"/>
</g>
<rect transform="translate(39.7822, 7.2212)" x="-0.0474" y="-5.0633" width="0.0948" height="3.3133" ry="0.0235" fill="currentColor"/>
<g color="rgb(50.0000%, 50.0000%, 50.0000%)">
<text transform="translate(39.9289, 13.2212)" font-family="sans-serif" font-size="1.2347" text-anchor="start" fill="currentColor">
<tspan>
D</tspan>
</text>
</g>
<g transform="scale(1.0000, 1.0000)">
<path transform="translate(39.7347, 1.9712)" stroke-width="0.0001" stroke-linejoin="round" stroke-linecap="round" stroke="currentColor" fill="currentColor" d="M1.0162 -0.5005C1.1901 -0.4580 1.3000 -0.3601 1.3267 -0.2237C1.3473 -0.1188 1.3091 0.0324 1.2347 0.1410C1.1037 0.3322 0.8787 0.4644 0.6176 0.5036C0.5244 0.5176 0.3659 0.5121 0.2884 0.4921C-0.0297 0.4098 -0.0964 0.0918 0.1475 -0.1799C0.2984 -0.3479 0.5439 -0.4756 0.7758 -0.5066C0.8400 -0.5151 0.9696 -0.5119 1.0162 -0.5005z"/>
</g>
<rect transform="translate(35.6822, 7.2212)" x="-0.0474" y="-4.6883" width="0.0948" height="3.3133" ry="0.0235" fill="currentColor"/>
<g color="rgb(50.0000%, 50.0000%, 50.0000%)">
<text transform="translate(35.4104, 13.2212)" font-family="sans-serif" font-size="1.2347" text-anchor="start" fill="currentColor">
<tspan>
C</tspan>
</text>
<path transform="translate(36.5740, 12.6712) scale(0.0022, -0.0022)" d="M216 -312c0 -10 -8 -19 -18 -19s-19 9 -19 19v145l-83 -31v-158c0 -10 -9 -19 -19 -19s-18 9 -18 19v145l-32 -12c-2 -1 -5 -1 -7 -1c-11 0 -20 9 -20 20v60c0 8 5 16 13 19l46 16v160l-32 -11c-2 -1 -5 -1 -7 -1c-11 0 -20 9 -20 20v60c0 8 5 15 13 18l46 17v158
c0 10 8 19 18 19s19 -9 19 -19v-145l83 31v158c0 10 9 19 19 19s18 -9 18 -19v-145l32 12c2 1 5 1 7 1c11 0 20 -9 20 -20v-60c0 -8 -5 -16 -13 -19l-46 -16v-160l32 11c2 1 5 1 7 1c11 0 20 -9 20 -20v-60c0 -8 -5 -15 -13 -18l-46 -17v-158zM96 65v-160l83 30v160z" fill="currentColor"/>
<text transform="translate(35.4044, 15.2212)" font-family="sans-serif" font-size="1.2347" text-anchor="start" fill="currentColor">
<tspan>
D</tspan>
</text>
<path transform="translate(36.7484, 14.9712) scale(0.0022, -0.0022)" d="M27 41l-1 -66v-11c0 -22 1 -44 4 -66c45 38 93 80 93 139c0 33 -14 67 -43 67c-31 0 -52 -30 -53 -63zM-15 -138l-12 595c8 5 18 8 27 8s19 -3 27 -8l-7 -345c25 21 58 34 91 34c52 0 89 -48 89 -102c0 -80 -86 -117 -147 -169c-15 -13 -24 -38 -45 -38
c-13 0 -23 11 -23 25z" fill="currentColor"/>
</g>
<g transform="scale(1.0000, 1.0000)">
<path transform="translate(35.6347, 2.3462)" stroke-width="0.0001" stroke-linejoin="round" stroke-linecap="round" stroke="currentColor" fill="currentColor" d="M1.0162 -0.5005C1.1901 -0.4580 1.3000 -0.3601 1.3267 -0.2237C1.3473 -0.1188 1.3091 0.0324 1.2347 0.1410C1.1037 0.3322 0.8787 0.4644 0.6176 0.5036C0.5244 0.5176 0.3659 0.5121 0.2884 0.4921C-0.0297 0.4098 -0.0964 0.0918 0.1475 -0.1799C0.2984 -0.3479 0.5439 -0.4756 0.7758 -0.5066C0.8400 -0.5151 0.9696 -0.5119 1.0162 -0.5005z"/>
</g>
<rect transform="translate(31.5822, 7.2212)" x="-0.0474" y="-4.3133" width="0.0948" height="3.3133" ry="0.0235" fill="currentColor"/>
<g color="rgb(50.0000%, 50.0000%, 50.0000%)">
<text transform="translate(31.7691, 13.2212)" font-family="sans-serif" font-size="1.2347" text-anchor="start" fill="currentColor">
<tspan>
C</tspan>
</text>
</g>
<g transform="scale(1.0000, 1.0000)">
<path transform="translate(31.5347, 2.7212)" stroke-width="0.0001" stroke-linejoin="round" stroke-linecap="round" stroke="currentColor" fill="currentColor" d="M1.0162 -0.5005C1.1901 -0.4580 1.3000 -0.3601 1.3267 -0.2237C1.3473 -0.1188 1.3091 0.0324 1.2347 0.1410C1.1037 0.3322 0.8787 0.4644 0.6176 0.5036C0.5244 0.5176 0.3659 0.5121 0.2884 0.4921C-0.0297 0.4098 -0.0964 0.0918 0.1475 -0.1799C0.2984 -0.3479 0.5439 -0.4756 0.7758 -0.5066C0.8400 -0.5151 0.9696 -0.5119 1.0162 -0.5005z"/>
</g>
<rect transform="translate(27.4822, 7.2212)" x="-0.0474" y="-3.9383" width="0.0948" height="3.3133" ry="0.0235" fill="currentColor"/>
<g color="rgb(50.0000%, 50.0000%, 50.0000%)">
<text transform="translate(27.6791, 13.2212)" font-family="sans-serif" font-size="1.2347" text-anchor="start" fill="currentColor">
<tspan>
B</tspan>
</text>
</g>
<g transform="scale(1.0000, 1.0000)">
<path transform="translate(27.4347, 3.0962)" stroke-width="0.0001" stroke-linejoin="round" stroke-linecap="round" stroke="currentColor" fill="currentColor" d="M1.0162 -0.5005C1.1901 -0.4580 1.3000 -0.3601 1.3267 -0.2237C1.3473 -0.1188 1.3091 0.0324 1.2347 0.1410C1.1037 0.3322 0.8787 0.4644 0.6176 0.5036C0.5244 0.5176 0.3659 0.5121 0.2884 0.4921C-0.0297 0.4098 -0.0964 0.0918 0.1475 -0.1799C0.2984 -0.3479 0.5439 -0.4756 0.7758 -0.5066C0.8400 -0.5151 0.9696 -0.5119 1.0162 -0.5005z"/>
</g>
<rect transform="translate(43.8822, 7.2212)" x="-0.0474" y="-5.4383" width="0.0948" height="3.3133" ry="0.0235" fill="currentColor"/>
<rect transform="translate(52.0822, 7.2212)" x="-0.0474" y="-6.1883" width="0.0948" height="3.3133" ry="0.0235" fill="currentColor"/>
<g color="rgb(50.0000%, 50.0000%, 50.0000%)">
<text transform="translate(52.3494, 13.2212)" font-family="sans-serif" font-size="1.2347" text-anchor="start" fill="currentColor">
<tspan>
F</tspan>
</text>
</g>
<g transform="scale(1.0000, 1.0000)">
<path transform="translate(52.0347, 0.8462)" stroke-width="0.0001" stroke-linejoin="round" stroke-linecap="round" stroke="currentColor" fill="currentColor" d="M1.0162 -0.5005C1.1901 -0.4580 1.3000 -0.3601 1.3267 -0.2237C1.3473 -0.1188 1.3091 0.0324 1.2347 0.1410C1.1037 0.3322 0.8787 0.4644 0.6176 0.5036C0.5244 0.5176 0.3659 0.5121 0.2884 0.4921C-0.0297 0.4098 -0.0964 0.0918 0.1475 -0.1799C0.2984 -0.3479 0.5439 -0.4756 0.7758 -0.5066C0.8400 -0.5151 0.9696 -0.5119 1.0162 -0.5005z"/>
</g>
<rect transform="translate(47.9822, 7.2212)" x="-0.0474" y="-5.8133" width="0.0948" height="3.3133" ry="0.0235" fill="currentColor"/>
<g color="rgb(50.0000%, 50.0000%, 50.0000%)">
<text transform="translate(48.2092, 13.2212)" font-family="sans-serif" font-size="1.2347" text-anchor="start" fill="currentColor">
<tspan>
E</tspan>
</text>
</g>
<g transform="scale(1.0000, 1.0000)">
<path transform="translate(47.9347, 1.2212)" stroke-width="0.0001" stroke-linejoin="round" stroke-linecap="round" stroke="currentColor" fill="currentColor" d="M1.0162 -0.5005C1.1901 -0.4580 1.3000 -0.3601 1.3267 -0.2237C1.3473 -0.1188 1.3091 0.0324 1.2347 0.1410C1.1037 0.3322 0.8787 0.4644 0.6176 0.5036C0.5244 0.5176 0.3659 0.5121 0.2884 0.4921C-0.0297 0.4098 -0.0964 0.0918 0.1475 -0.1799C0.2984 -0.3479 0.5439 -0.4756 0.7758 -0.5066C0.8400 -0.5151 0.9696 -0.5119 1.0162 -0.5005z"/>
</g>
<g transform="scale(1.0000, 1.0000)">
<path transform="translate(6.9347, 4.9712)" stroke-width="0.0001" stroke-linejoin="round" stroke-linecap="round" stroke="currentColor" fill="currentColor" d="M1.0162 -0.5005C1.1901 -0.4580 1.3000 -0.3601 1.3267 -0.2237C1.3473 -0.1188 1.3091 0.0324 1.2347 0.1410C1.1037 0.3322 0.8787 0.4644 0.6176 0.5036C0.5244 0.5176 0.3659 0.5121 0.2884 0.4921C-0.0297 0.4098 -0.0964 0.0918 0.1475 -0.1799C0.2984 -0.3479 0.5439 -0.4756 0.7758 -0.5066C0.8400 -0.5151 0.9696 -0.5119 1.0162 -0.5005z"/>
</g>
<g color="rgb(50.0000%, 50.0000%, 50.0000%)">
<text transform="translate(14.8702, 13.2212)" font-family="sans-serif" font-size="1.2347" text-anchor="start" fill="currentColor">
<tspan>
G</tspan>
</text>
<path transform="translate(16.1142, 12.6712) scale(0.0022, -0.0022)" d="M216 -312c0 -10 -8 -19 -18 -19s-19 9 -19 19v145l-83 -31v-158c0 -10 -9 -19 -19 -19s-18 9 -18 19v145l-32 -12c-2 -1 -5 -1 -7 -1c-11 0 -20 9 -20 20v60c0 8 5 16 13 19l46 16v160l-32 -11c-2 -1 -5 -1 -7 -1c-11 0 -20 9 -20 20v60c0 8 5 15 13 18l46 17v158
c0 10 8 19 18 19s19 -9 19 -19v-145l83 31v158c0 10 9 19 19 19s18 -9 18 -19v-145l32 12c2 1 5 1 7 1c11 0 20 -9 20 -20v-60c0 -8 -5 -16 -13 -19l-46 -16v-160l32 11c2 1 5 1 7 1c11 0 20 -9 20 -20v-60c0 -8 -5 -15 -13 -18l-46 -17v-158zM96 65v-160l83 30v160z" fill="currentColor"/>
<text transform="translate(14.9546, 15.2212)" font-family="sans-serif" font-size="1.2347" text-anchor="start" fill="currentColor">
<tspan>
A</tspan>
</text>
<path transform="translate(16.1982, 14.9712) scale(0.0022, -0.0022)" d="M27 41l-1 -66v-11c0 -22 1 -44 4 -66c45 38 93 80 93 139c0 33 -14 67 -43 67c-31 0 -52 -30 -53 -63zM-15 -138l-12 595c8 5 18 8 27 8s19 -3 27 -8l-7 -345c25 21 58 34 91 34c52 0 89 -48 89 -102c0 -80 -86 -117 -147 -169c-15 -13 -24 -38 -45 -38
c-13 0 -23 11 -23 25z" fill="currentColor"/>
</g>
<g transform="scale(1.0000, 1.0000)">
<path transform="translate(15.1347, 4.2212)" stroke-width="0.0001" stroke-linejoin="round" stroke-linecap="round" stroke="currentColor" fill="currentColor" d="M1.0162 -0.5005C1.1901 -0.4580 1.3000 -0.3601 1.3267 -0.2237C1.3473 -0.1188 1.3091 0.0324 1.2347 0.1410C1.1037 0.3322 0.8787 0.4644 0.6176 0.5036C0.5244 0.5176 0.3659 0.5121 0.2884 0.4921C-0.0297 0.4098 -0.0964 0.0918 0.1475 -0.1799C0.2984 -0.3479 0.5439 -0.4756 0.7758 -0.5066C0.8400 -0.5151 0.9696 -0.5119 1.0162 -0.5005z"/>
</g>
<rect transform="translate(11.0822, 7.2212)" x="-0.0474" y="-2.4383" width="0.0948" height="3.3133" ry="0.0235" fill="currentColor"/>
<g color="rgb(50.0000%, 50.0000%, 50.0000%)">
<text transform="translate(11.2289, 13.2212)" font-family="sans-serif" font-size="1.2347" text-anchor="start" fill="currentColor">
<tspan>
G</tspan>
</text>
</g>
<g transform="scale(1.0000, 1.0000)">
<path transform="translate(11.0347, 4.5962)" stroke-width="0.0001" stroke-linejoin="round" stroke-linecap="round" stroke="currentColor" fill="currentColor" d="M1.0162 -0.5005C1.1901 -0.4580 1.3000 -0.3601 1.3267 -0.2237C1.3473 -0.1188 1.3091 0.0324 1.2347 0.1410C1.1037 0.3322 0.8787 0.4644 0.6176 0.5036C0.5244 0.5176 0.3659 0.5121 0.2884 0.4921C-0.0297 0.4098 -0.0964 0.0918 0.1475 -0.1799C0.2984 -0.3479 0.5439 -0.4756 0.7758 -0.5066C0.8400 -0.5151 0.9696 -0.5119 1.0162 -0.5005z"/>
</g>
<rect transform="translate(6.9822, 7.2212)" x="-0.0474" y="-2.0633" width="0.0948" height="3.3133" ry="0.0235" fill="currentColor"/>
<g color="rgb(50.0000%, 50.0000%, 50.0000%)">
<text transform="translate(6.7907, 13.2212)" font-family="sans-serif" font-size="1.2347" text-anchor="start" fill="currentColor">
<tspan>
F</tspan>
</text>
<path transform="translate(7.7937, 12.6712) scale(0.0022, -0.0022)" d="M216 -312c0 -10 -8 -19 -18 -19s-19 9 -19 19v145l-83 -31v-158c0 -10 -9 -19 -19 -19s-18 9 -18 19v145l-32 -12c-2 -1 -5 -1 -7 -1c-11 0 -20 9 -20 20v60c0 8 5 16 13 19l46 16v160l-32 -11c-2 -1 -5 -1 -7 -1c-11 0 -20 9 -20 20v60c0 8 5 15 13 18l46 17v158
c0 10 8 19 18 19s19 -9 19 -19v-145l83 31v158c0 10 9 19 19 19s18 -9 18 -19v-145l32 12c2 1 5 1 7 1c11 0 20 -9 20 -20v-60c0 -8 -5 -16 -13 -19l-46 -16v-160l32 11c2 1 5 1 7 1c11 0 20 -9 20 -20v-60c0 -8 -5 -15 -13 -18l-46 -17v-158zM96 65v-160l83 30v160z" fill="currentColor"/>
<text transform="translate(6.7044, 15.2212)" font-family="sans-serif" font-size="1.2347" text-anchor="start" fill="currentColor">
<tspan>
G</tspan>
</text>
<path transform="translate(8.0484, 14.9712) scale(0.0022, -0.0022)" d="M27 41l-1 -66v-11c0 -22 1 -44 4 -66c45 38 93 80 93 139c0 33 -14 67 -43 67c-31 0 -52 -30 -53 -63zM-15 -138l-12 595c8 5 18 8 27 8s19 -3 27 -8l-7 -345c25 21 58 34 91 34c52 0 89 -48 89 -102c0 -80 -86 -117 -147 -169c-15 -13 -24 -38 -45 -38
c-13 0 -23 11 -23 25z" fill="currentColor"/>
</g>
<rect transform="translate(2.8822, 7.2212)" x="-0.0474" y="-1.6883" width="0.0948" height="3.3133" ry="0.0235" fill="currentColor"/>
<g color="rgb(50.0000%, 50.0000%, 50.0000%)">
<text transform="translate(3.1494, 13.2212)" font-family="sans-serif" font-size="1.2347" text-anchor="start" fill="currentColor">
<tspan>
F</tspan>
</text>
</g>
<g transform="scale(1.0000, 1.0000)">
<path transform="translate(2.8347, 5.3462)" stroke-width="0.0001" stroke-linejoin="round" stroke-linecap="round" stroke="currentColor" fill="currentColor" d="M1.0162 -0.5005C1.1901 -0.4580 1.3000 -0.3601 1.3267 -0.2237C1.3473 -0.1188 1.3091 0.0324 1.2347 0.1410C1.1037 0.3322 0.8787 0.4644 0.6176 0.5036C0.5244 0.5176 0.3659 0.5121 0.2884 0.4921C-0.0297 0.4098 -0.0964 0.0918 0.1475 -0.1799C0.2984 -0.3479 0.5439 -0.4756 0.7758 -0.5066C0.8400 -0.5151 0.9696 -0.5119 1.0162 -0.5005z"/>
</g>
<text transform="translate(0.8347, 3.7247)" font-family="serif" font-size="2.2000" text-anchor="start" fill="currentColor">
<tspan/>
</text>
<g transform="scale(1.0000, 1.0000)">
<path transform="translate(19.2347, 3.8462)" stroke-width="0.0001" stroke-linejoin="round" stroke-linecap="round" stroke="currentColor" fill="currentColor" d="M1.0162 -0.5005C1.1901 -0.4580 1.3000 -0.3601 1.3267 -0.2237C1.3473 -0.1188 1.3091 0.0324 1.2347 0.1410C1.1037 0.3322 0.8787 0.4644 0.6176 0.5036C0.5244 0.5176 0.3659 0.5121 0.2884 0.4921C-0.0297 0.4098 -0.0964 0.0918 0.1475 -0.1799C0.2984 -0.3479 0.5439 -0.4756 0.7758 -0.5066C0.8400 -0.5151 0.9696 -0.5119 1.0162 -0.5005z"/>
</g>
<g color="rgb(50.0000%, 50.0000%, 50.0000%)">
<text transform="translate(19.4791, 13.2212)" font-family="sans-serif" font-size="1.2347" text-anchor="start" fill="currentColor">
<tspan>
A</tspan>
</text>
</g>
<rect transform="translate(19.2822, 7.2212)" x="-0.0474" y="-3.1883" width="0.0948" height="3.3133" ry="0.0235" fill="currentColor"/>
<g transform="scale(1.0000, 1.0000)">
<path transform="translate(23.3347, 3.4712)" stroke-width="0.0001" stroke-linejoin="round" stroke-linecap="round" stroke="currentColor" fill="currentColor" d="M1.0162 -0.5005C1.1901 -0.4580 1.3000 -0.3601 1.3267 -0.2237C1.3473 -0.1188 1.3091 0.0324 1.2347 0.1410C1.1037 0.3322 0.8787 0.4644 0.6176 0.5036C0.5244 0.5176 0.3659 0.5121 0.2884 0.4921C-0.0297 0.4098 -0.0964 0.0918 0.1475 -0.1799C0.2984 -0.3479 0.5439 -0.4756 0.7758 -0.5066C0.8400 -0.5151 0.9696 -0.5119 1.0162 -0.5005z"/>
</g>
<g color="rgb(50.0000%, 50.0000%, 50.0000%)">
<text transform="translate(23.1204, 13.2212)" font-family="sans-serif" font-size="1.2347" text-anchor="start" fill="currentColor">
<tspan>
A</tspan>
</text>
<path transform="translate(24.2640, 12.6712) scale(0.0022, -0.0022)" d="M216 -312c0 -10 -8 -19 -18 -19s-19 9 -19 19v145l-83 -31v-158c0 -10 -9 -19 -19 -19s-18 9 -18 19v145l-32 -12c-2 -1 -5 -1 -7 -1c-11 0 -20 9 -20 20v60c0 8 5 16 13 19l46 16v160l-32 -11c-2 -1 -5 -1 -7 -1c-11 0 -20 9 -20 20v60c0 8 5 15 13 18l46 17v158
c0 10 8 19 18 19s19 -9 19 -19v-145l83 31v158c0 10 9 19 19 19s18 -9 18 -19v-145l32 12c2 1 5 1 7 1c11 0 20 -9 20 -20v-60c0 -8 -5 -16 -13 -19l-46 -16v-160l32 11c2 1 5 1 7 1c11 0 20 -9 20 -20v-60c0 -8 -5 -15 -13 -18l-46 -17v-158zM96 65v-160l83 30v160z" fill="currentColor"/>
<text transform="translate(23.1546, 15.2212)" font-family="sans-serif" font-size="1.2347" text-anchor="start" fill="currentColor">
<tspan>
B</tspan>
</text>
<path transform="translate(24.3982, 14.9712) scale(0.0022, -0.0022)" d="M27 41l-1 -66v-11c0 -22 1 -44 4 -66c45 38 93 80 93 139c0 33 -14 67 -43 67c-31 0 -52 -30 -53 -63zM-15 -138l-12 595c8 5 18 8 27 8s19 -3 27 -8l-7 -345c25 21 58 34 91 34c52 0 89 -48 89 -102c0 -80 -86 -117 -147 -169c-15 -13 -24 -38 -45 -38
c-13 0 -23 11 -23 25z" fill="currentColor"/>
</g>
<rect transform="translate(23.3822, 7.2212)" x="-0.0474" y="-3.5633" width="0.0948" height="3.3133" ry="0.0235" fill="currentColor"/>
<rect transform="translate(15.1822, 7.2212)" x="-0.0474" y="-2.8133" width="0.0948" height="3.3133" ry="0.0235" fill="currentColor"/>
<text transform="translate(35.1475, 99.0825)" font-family="serif" font-size="2.2000" text-anchor="start" fill="currentColor">
<tspan/>
</text>
</svg>
