<?xml version="1.0" encoding="UTF-8" standalone="no"?>
<!-- Created with Inkscape (http://www.inkscape.org/) -->

<svg
   xmlns:dc="http://purl.org/dc/elements/1.1/"
   xmlns:cc="http://creativecommons.org/ns#"
   xmlns:rdf="http://www.w3.org/1999/02/22-rdf-syntax-ns#"
   xmlns:svg="http://www.w3.org/2000/svg"
   xmlns="http://www.w3.org/2000/svg"
   version="1.2"
   width="448.77914"
   height="91.070969"
   viewBox="0 0 72.073946 14.626"
   id="svg2">
  <metadata
     id="metadata132">
    <rdf:RDF>
      <cc:Work
         rdf:about="">
        <dc:format>image/svg+xml</dc:format>
        <dc:type
           rdf:resource="http://purl.org/dc/dcmitype/StillImage" />
        <dc:title></dc:title>
      </cc:Work>
    </rdf:RDF>
  </metadata>
  <defs
     id="defs130" />
  <text
     x="7.4274745"
     y="2.5929985"
     id="text4"
     style="font-size:2.20009995px;text-anchor:start;fill:currentColor;font-family:Century Schoolbook L">
    <tspan
       id="tspan6" />
  </text>
  <rect
     width="3.448025"
     height="0.29750001"
     ry="0.14875001"
     x="56.935825"
     y="6.166749"
     id="rect8"
     style="fill:currentColor" />
  <rect
     width="3.448025"
     height="0.29750001"
     ry="0.14875001"
     x="62.205952"
     y="6.166749"
     id="rect10"
     style="fill:currentColor" />
  <line
     x1="0.99550015"
     y1="1.4154986"
     x2="71.183449"
     y2="1.4154986"
     id="line12"
     style="stroke:currentColor;stroke-width:0.175;stroke-linecap:round;stroke-linejoin:round" />
  <line
     x1="0.99550015"
     y1="3.8654988"
     x2="71.183449"
     y2="3.8654988"
     id="line14"
     style="stroke:currentColor;stroke-width:0.175;stroke-linecap:round;stroke-linejoin:round" />
  <line
     x1="0.99550015"
     y1="8.7654991"
     x2="71.183449"
     y2="8.7654991"
     id="line16"
     style="stroke:currentColor;stroke-width:0.175;stroke-linecap:round;stroke-linejoin:round" />
  <line
     x1="0.99550015"
     y1="11.215499"
     x2="71.183449"
     y2="11.215499"
     id="line18"
     style="stroke:currentColor;stroke-width:0.175;stroke-linecap:round;stroke-linejoin:round" />
  <rect
     width="0.33249998"
     height="9.8000002"
     ry="0"
     x="42.717251"
     y="1.4154986"
     id="rect20"
     style="fill:currentColor" />
  <path
     d="m 29.376825,4.7842486 c 0,-0.217 0.175,-0.392 0.392,-0.392 0.217,0 0.392,0.175 0.392,0.392 0,0.217 -0.175,0.392 -0.392,0.392 -0.217,0 -0.392,-0.175 -0.392,-0.392 z"
     id="path22"
     style="fill:currentColor" />
  <path
     d="m 29.376825,7.8467486 c 0,-0.217 0.175,-0.392 0.392,-0.392 0.217,0 0.392,0.175 0.392,0.392 0,0.217 -0.175,0.392 -0.392,0.392 -0.217,0 -0.392,-0.175 -0.392,-0.392 z"
     id="path24"
     style="fill:currentColor" />
  <rect
     width="0.33249998"
     height="9.8000002"
     ry="0"
     x="28.519323"
     y="1.4154986"
     id="rect26"
     style="fill:currentColor" />
  <rect
     width="1.0500001"
     height="9.8000002"
     ry="0"
     x="26.944324"
     y="1.4154986"
     id="rect28"
     style="fill:currentColor" />
  <path
     d="m 68.050775,4.7842486 c 0,-0.217 0.175,-0.392 0.392,-0.392 0.217,0 0.392,0.175 0.392,0.392 0,0.217 -0.175,0.392 -0.392,0.392 -0.217,0 -0.392,-0.175 -0.392,-0.392 z"
     id="path30"
     style="fill:currentColor" />
  <path
     d="m 68.050775,7.8467486 c 0,-0.217 0.175,-0.392 0.392,-0.392 0.217,0 0.392,0.175 0.392,0.392 0,0.217 -0.175,0.392 -0.392,0.392 -0.217,0 -0.392,-0.175 -0.392,-0.392 z"
     id="path32"
     style="fill:currentColor" />
  <rect
     width="1.0500001"
     height="9.8000002"
     ry="0"
     x="70.220779"
     y="1.4154986"
     id="rect34"
     style="fill:currentColor" />
  <rect
     width="0.33249998"
     height="9.8000002"
     ry="0"
     x="69.363281"
     y="1.4154986"
     id="rect36"
     style="fill:currentColor" />
  <rect
     width="0.33249998"
     height="9.8000002"
     ry="0"
     x="55.602848"
     y="1.4154986"
     id="rect38"
     style="fill:currentColor" />
  <rect
     width="0.22749999"
     height="5.8362498"
     ry="0.07"
     x="59.650425"
     y="0.80299842"
     id="rect40"
     style="fill:currentColor" />
  <g
     transform="matrix(1.7284546,0.27376031,-0.27376031,1.7284546,-20.959815,-18.697006)"
     id="g42">
    <g
       id="g44">
      <g
         transform="scale(0.945,1)"
         id="g46">
        <path
           d="m 315,65 c 0,24 -21,41 -42,41 -4,0 -8,0 -12,-1 C 230,96 184,65 147,41 110,17 63,-12 43,-37 36,-45 32,-55 32,-65 c 0,-24 21,-41 42,-41 4,0 8,0 12,1 31,9 78,40 115,64 37,24 84,53 104,78 7,8 10,18 10,28 z m -51,72 c 47,0 83,-21 83,-72 0,-19 -4,-37 -10,-56 -12,-38 -32,-74 -65,-96 -54,-36 -113,-51 -188,-51 -47,0 -84,22 -84,73 0,19 5,37 11,56 12,38 31,74 64,96 54,36 114,50 189,50 z"
           transform="matrix(0.004,0,0,-0.004,49.281,7.3453)"
           id="path48"
           style="fill:currentColor" />
      </g>
    </g>
  </g>
  <rect
     width="0.22749999"
     height="5.8362498"
     ry="0.07"
     x="52.035126"
     y="2.0279984"
     id="rect50"
     style="fill:currentColor" />
  <g
     transform="matrix(1.7284546,0.27376031,-0.27376031,1.7284546,-20.86194,-17.490629)"
     id="g52">
    <g
       id="g54">
      <g
         transform="scale(0.945,1)"
         id="g56">
        <path
           d="m 315,65 c 0,24 -21,41 -42,41 -4,0 -8,0 -12,-1 C 230,96 184,65 147,41 110,17 63,-12 43,-37 36,-45 32,-55 32,-65 c 0,-24 21,-41 42,-41 4,0 8,0 12,1 31,9 78,40 115,64 37,24 84,53 104,78 7,8 10,18 10,28 z m -51,72 c 47,0 83,-21 83,-72 0,-19 -4,-37 -10,-56 -12,-38 -32,-74 -65,-96 -54,-36 -113,-51 -188,-51 -47,0 -84,22 -84,73 0,19 5,37 11,56 12,38 31,74 64,96 54,36 114,50 189,50 z"
           transform="matrix(0.004,0,0,-0.004,44.6762,8.0453)"
           id="path58"
           style="fill:currentColor" />
      </g>
    </g>
  </g>
  <path
     d="m 4.9400002,7.5439986 c 0.028,0 0.063,-0.007 0.091,-0.007 1.085,0 1.792,0.896 1.792,1.827 0,0.532 -0.231,1.0780004 -0.749,1.4700004 -0.154,0.119 -0.329,0.196 -0.511,0.252 0.021,0.245 0.035,0.49 0.035,0.735 0,0.133 -0.007,0.273 -0.014,0.406 -0.049,0.84 -0.63,1.596 -1.456,1.596 -0.756,0 -1.365,-0.616 -1.365,-1.379 0,-0.406 0.371,-0.721 0.784,-0.721 0.378,0 0.665,0.329 0.665,0.721 0,0.364 -0.301,0.665 -0.665,0.665 -0.077,0 -0.147,-0.014 -0.217,-0.042 0.182,0.273 0.476,0.455 0.819,0.455 0.672,0 1.099,-0.644 1.141,-1.337 0.007,-0.126 0.014,-0.259 0.014,-0.385 0,-0.217 -0.007,-0.427 -0.028,-0.644 -0.203,0.035 -0.406,0.056 -0.623,0.056 -1.316,0 -2.331,-1.204 -2.331,-2.6180004 0,-1.239 0.917,-2.142 1.736,-3.087 -0.133,-0.434 -0.259,-0.875 -0.315,-1.33 -0.042,-0.364 -0.049,-0.728 -0.049,-1.092 0,-0.805 0.385,-1.568 1.043,-2.044 0.021,-0.014 0.049,-0.021 0.07,-0.021 0.028,0 0.049,0 0.07,0.021 0.497,0.588 0.931,1.715 0.931,2.506 0,1.001 -0.602,1.785 -1.26,2.548 0.147,0.476 0.273,0.966 0.392,1.449 z m 0.595,3.2550004 c 0.476,-0.168 0.791,-0.665 0.791,-1.1480004 0,-0.63 -0.462,-1.253 -1.211,-1.33 0.168,0.812 0.322,1.617 0.42,2.4780004 z m -2.709,-1.6170004 c 0,0.9450004 0.903,1.7290004 1.848,1.7290004 0.196,0 0.385,-0.014 0.574,-0.042 -0.098,-0.8890004 -0.259,-1.7150004 -0.441,-2.5480004 -0.553,0.056 -0.868,0.427 -0.868,0.833 0,0.308 0.175,0.637 0.567,0.8610004 0.035,0.035 0.049,0.07 0.049,0.105 0,0.077 -0.07,0.154 -0.154,0.154 -0.021,0 -0.042,-0.007 -0.063,-0.014 -0.56,-0.3010004 -0.819,-0.8050004 -0.819,-1.2950004 0,-0.616 0.406,-1.218 1.12,-1.379 -0.098,-0.406 -0.203,-0.819 -0.322,-1.225 -0.749,0.847 -1.491,1.701 -1.491,2.821 z m 2.338,-7.119 c -0.693,0.336 -1.134,1.043 -1.134,1.813 0,0.518 0.126,0.931 0.252,1.358 0.56,-0.679 1.022,-1.386 1.022,-2.268 0,-0.385 -0.028,-0.553 -0.14,-0.903 z"
     id="path60"
     style="fill:currentColor" />
  <rect
     width="0.22749999"
     height="5.8362498"
     ry="0.07"
     x="18.106474"
     y="4.4779987"
     id="rect62"
     style="fill:currentColor" />
  <rect
     width="0.22749999"
     height="5.8362498"
     ry="0.07"
     x="64.920723"
     y="0.80299842"
     id="rect64"
     style="fill:currentColor" />
  <g
     transform="matrix(1.7284546,0.27376031,-0.27376031,1.7284546,-20.894931,-19.521436)"
     id="g66">
    <g
       id="g68">
      <g
         transform="scale(0.945,1)"
         id="g70">
        <path
           d="m 315,65 c 0,24 -21,41 -42,41 -4,0 -8,0 -12,-1 C 230,96 184,65 147,41 110,17 63,-12 43,-37 36,-45 32,-55 32,-65 c 0,-24 21,-41 42,-41 4,0 8,0 12,1 31,9 78,40 115,64 37,24 84,53 104,78 7,8 10,18 10,28 z m -51,72 c 47,0 83,-21 83,-72 0,-19 -4,-37 -10,-56 -12,-38 -32,-74 -65,-96 -54,-36 -113,-51 -188,-51 -47,0 -84,22 -84,73 0,19 5,37 11,56 12,38 31,74 64,96 54,36 114,50 189,50 z"
           transform="matrix(0.004,0,0,-0.004,52.4679,7.3453)"
           id="path72"
           style="fill:currentColor" />
      </g>
    </g>
  </g>
  <path
     d="m 11.086,9.0041986 c 0.154,-0.098 0.308,-0.203 0.42,-0.35 0.077,-0.105 0.133,-0.231 0.189,-0.35 0.014,-0.028 0.035,-0.042 0.063,-0.042 0.042,0 0.091,0.035 0.091,0.098 v 1.7150004 h 0.504 c 0.07,0 0.105,0.049 0.105,0.098 0,0.049 -0.035,0.105 -0.105,0.105 h -0.504 v 0.056 c 0,0.336 0.189,0.658 0.504,0.658 0.056,0 0.084,0.035 0.084,0.077 0,0.042 -0.028,0.084 -0.084,0.084 -0.308,0 -0.609,-0.091 -0.917001,-0.091 -0.308,0 -0.609,0.091 -0.917,0.091 -0.056,0 -0.084,-0.042 -0.084,-0.084 0,-0.042 0.028,-0.077 0.084,-0.077 0.315,0 0.511,-0.322 0.511,-0.658 v -0.056 H 9.8609993 c -0.161,0 -0.217,-0.098 -0.217,-0.161 0,-0.021 0.007,-0.035 0.014,-0.042 0.5599997,-0.6510004 0.9659997,-1.4490004 0.9659997,-2.3100004 0,-0.063 0.042,-0.112 0.091,-0.112 h 0.021 c 0.161,0.049 0.329,0.091 0.497,0.091 0.168,0 0.336,-0.042 0.497,-0.091 0.014,-0.007 0.021,-0.007 0.035,-0.007 0.077,0 0.126,0.07 0.084,0.119 L 9.8609995,10.075199 H 11.029999 V 9.1581986 c 0,-0.056 0.007,-0.119 0.056,-0.154 z"
     id="path74"
     style="fill:currentColor" />
  <path
     d="m 9.9385252,7.5509986 c -0.007,0.049 -0.042,0.077 -0.077,0.077 -0.042,0 -0.084,-0.028 -0.084,-0.077 0,-1.225 1.6449998,-1.155 1.6449998,-2.408 0,-0.42 -0.126,-0.854 -0.49,-0.854 -0.182,0 -0.357,0.098 -0.357,0.259 0,0.189 0.245,0.287 0.245,0.476 0,0.266 -0.21,0.483 -0.476,0.483 -0.266,0 -0.4829998,-0.217 -0.4829998,-0.483 0,-0.532 0.5039998,-0.896 1.0709998,-0.896 0.672,0 1.309,0.392 1.309,1.015 0,1.071 -1.057,1.113 -1.743,1.54 0.063,-0.014 0.119,-0.021 0.182,-0.021 0.231,0 0.49,0.077 0.735,0.252 0.147,0.105 0.322,0.161 0.462,0.161 0.147,0 0.273,-0.063 0.308,-0.203 0.014,-0.042 0.042,-0.063 0.077,-0.063 0.042,0 0.084,0.035 0.084,0.084 0,0.469 -0.63,0.735 -0.966,0.735 -0.252,0 -0.497,-0.098 -0.672,-0.308 -0.091,-0.112 -0.217,-0.154 -0.336,-0.154 -0.21,0 -0.4129998,0.14 -0.4339998,0.385 z"
     id="path76"
     style="fill:currentColor" />
  <rect
     width="0.22749999"
     height="5.8362498"
     ry="0.07"
     x="33.879398"
     y="3.2529986"
     id="rect78"
     style="fill:currentColor" />
  <g
     transform="matrix(1.7284546,0.27376031,-0.27376031,1.7284546,-20.893837,-14.635339)"
     id="g80">
    <g
       id="g82">
      <g
         transform="scale(0.945,1)"
         id="g84">
        <path
           d="m 315,65 c 0,24 -21,41 -42,41 -4,0 -8,0 -12,-1 C 230,96 184,65 147,41 110,17 63,-12 43,-37 36,-45 32,-55 32,-65 c 0,-24 21,-41 42,-41 4,0 8,0 12,1 31,9 78,40 115,64 37,24 84,53 104,78 7,8 10,18 10,28 z m -51,72 c 47,0 83,-21 83,-72 0,-19 -4,-37 -10,-56 -12,-38 -32,-74 -65,-96 -54,-36 -113,-51 -188,-51 -47,0 -84,22 -84,73 0,19 5,37 11,56 12,38 31,74 64,96 54,36 114,50 189,50 z"
           transform="matrix(0.004,0,0,-0.004,33.6976,8.7453)"
           id="path86"
           style="fill:currentColor" />
      </g>
    </g>
  </g>
  <rect
     width="0.22749999"
     height="5.8362498"
     ry="0.07"
     x="23.376598"
     y="4.4779987"
     id="rect88"
     style="fill:currentColor" />
  <g
     transform="matrix(1.7284546,0.27376031,-0.27376031,1.7284546,-20.83151,-12.977285)"
     id="g90">
    <g
       id="g92">
      <g
         transform="scale(0.945,1)"
         id="g94">
        <path
           d="m 315,65 c 0,24 -21,41 -42,41 -4,0 -8,0 -12,-1 C 230,96 184,65 147,41 110,17 63,-12 43,-37 36,-45 32,-55 32,-65 c 0,-24 21,-41 42,-41 4,0 8,0 12,1 31,9 78,40 115,64 37,24 84,53 104,78 7,8 10,18 10,28 z m -51,72 c 47,0 83,-21 83,-72 0,-19 -4,-37 -10,-56 -12,-38 -32,-74 -65,-96 -54,-36 -113,-51 -188,-51 -47,0 -84,22 -84,73 0,19 5,37 11,56 12,38 31,74 64,96 54,36 114,50 189,50 z"
           transform="matrix(0.004,0,0,-0.004,27.3468,9.4453)"
           id="path96"
           style="fill:currentColor" />
      </g>
    </g>
  </g>
  <rect
     width="0.28"
     height="9.9749994"
     ry="0.087499999"
     x="0.80300015"
     y="1.3279988"
     id="rect98"
     style="fill:currentColor" />
  <rect
     width="0.22749999"
     height="5.8362498"
     ry="0.07"
     x="46.764999"
     y="2.0279984"
     id="rect100"
     style="fill:currentColor" />
  <g
     transform="matrix(1.7284546,0.27376031,-0.27376031,1.7284546,-20.926826,-16.666173)"
     id="g102">
    <g
       id="g104">
      <g
         transform="scale(0.945,1)"
         id="g106">
        <path
           d="m 315,65 c 0,24 -21,41 -42,41 -4,0 -8,0 -12,-1 C 230,96 184,65 147,41 110,17 63,-12 43,-37 36,-45 32,-55 32,-65 c 0,-24 21,-41 42,-41 4,0 8,0 12,1 31,9 78,40 115,64 37,24 84,53 104,78 7,8 10,18 10,28 z m -51,72 c 47,0 83,-21 83,-72 0,-19 -4,-37 -10,-56 -12,-38 -32,-74 -65,-96 -54,-36 -113,-51 -188,-51 -47,0 -84,22 -84,73 0,19 5,37 11,56 12,38 31,74 64,96 54,36 114,50 189,50 z"
           transform="matrix(0.004,0,0,-0.004,41.4893,8.0453)"
           id="path108"
           style="fill:currentColor" />
      </g>
    </g>
  </g>
  <g
     transform="matrix(1.7284546,0.27376031,-0.27376031,1.7284546,-20.896396,-12.152828)"
     id="g110">
    <g
       id="g112">
      <g
         transform="scale(0.945,1)"
         id="g114">
        <path
           d="m 315,65 c 0,24 -21,41 -42,41 -4,0 -8,0 -12,-1 C 230,96 184,65 147,41 110,17 63,-12 43,-37 36,-45 32,-55 32,-65 c 0,-24 21,-41 42,-41 4,0 8,0 12,1 31,9 78,40 115,64 37,24 84,53 104,78 7,8 10,18 10,28 z m -51,72 c 47,0 83,-21 83,-72 0,-19 -4,-37 -10,-56 -12,-38 -32,-74 -65,-96 -54,-36 -113,-51 -188,-51 -47,0 -84,22 -84,73 0,19 5,37 11,56 12,38 31,74 64,96 54,36 114,50 189,50 z"
           transform="matrix(0.004,0,0,-0.004,24.1599,9.4453)"
           id="path116"
           style="fill:currentColor" />
      </g>
    </g>
  </g>
  <g
     transform="matrix(1.7284546,0.27376031,-0.27376031,1.7284546,-20.828951,-15.459795)"
     id="g118">
    <g
       id="g120">
      <g
         transform="scale(0.945,1)"
         id="g122">
        <path
           d="m 315,65 c 0,24 -21,41 -42,41 -4,0 -8,0 -12,-1 C 230,96 184,65 147,41 110,17 63,-12 43,-37 36,-45 32,-55 32,-65 c 0,-24 21,-41 42,-41 4,0 8,0 12,1 31,9 78,40 115,64 37,24 84,53 104,78 7,8 10,18 10,28 z m -51,72 c 47,0 83,-21 83,-72 0,-19 -4,-37 -10,-56 -12,-38 -32,-74 -65,-96 -54,-36 -113,-51 -188,-51 -47,0 -84,22 -84,73 0,19 5,37 11,56 12,38 31,74 64,96 54,36 114,50 189,50 z"
           transform="matrix(0.004,0,0,-0.004,36.8845,8.7453)"
           id="path124"
           style="fill:currentColor" />
      </g>
    </g>
  </g>
  <rect
     width="0.22749999"
     height="5.8362498"
     ry="0.07"
     x="39.1497"
     y="3.2529986"
     id="rect126"
     style="fill:currentColor" />
</svg>
