\version "2.19"
\language "english"
\include "clairnote.ly"

\header{ tagline = "" }

#(set-global-staff-size 34)

\pointAndClickOff

\paper {
  page-breaking = #ly:one-line-auto-height-breaking
  top-system-spacing = 0
  top-margin = 1
  bottom-margin = 1
  left-margin = 1
  right-margin = 1
}

music = \relative {
  \time 7/4
  \key af \major
  af'4 bf c df ef f g
  \bar ""
}

fsize = -6

text = \lyricmode {
  \markup \with-color #grey \sans \fontsize #fsize {"A-flat"}
  \markup \with-color #grey \sans \fontsize #fsize {"B-flat"}
  \markup \with-color #grey \sans \fontsize #fsize {"C"}
  \markup \with-color #grey \sans \fontsize #fsize {"D-flat"}
  \markup \with-color #grey \sans \fontsize #fsize {"E-flat"}
  \markup \with-color #grey \sans \fontsize #fsize {"F"}
  \markup \with-color #grey \sans \fontsize #fsize {"G"}
  % \markup \with-color #grey \sans \fontsize #fsize {"A-flat"}
}

\score {
  <<
    \new Staff \with {
      % \cnNoteheadStyle "lilypond"
      \remove "Clef_engraver"
      \remove "Time_signature_engraver"
      % \magnifyStaff #1.75
    } {
      \new Voice = "one" { \music }
    }
    \new TradStaff \with {
      % \magnifyStaff #0.95
      \remove "Clef_engraver"
      \remove "Time_signature_engraver"
    } {
      \new Voice = "two" { \music }
    }
    \new Lyrics \lyricsto "two" \text
  >>
  \layout {
    % ragged-right = ##t
    indent = #0
    % line-width = #80
    \context {
      \Score
      proportionalNotationDuration = #(ly:make-moment 1 8)
      % \override SpacingSpanner #'uniform-stretching = ##t
      % \override Score.SpacingSpanner #'strict-note-spacing = ##t
      \remove "System_start_delimiter_engraver"
      \override BarNumber #'break-visibility = #all-invisible % #'#(#f #f #f)
      explicitKeySignatureVisibility = #end-of-line-invisible % #'#(#f #t #t)
      printKeyCancellation = ##f
      \override KeyCancellation #'break-visibility = #all-invisible % #'#(#f #f #f)
    }
  }
  % \midi { }
}
